<svg width="80" height="80" viewBox="0 0 80 80" fill="none" xmlns="http://www.w3.org/2000/svg">
<mask id="mask0" mask-type="alpha" maskUnits="userSpaceOnUse" x="0" y="0" width="80" height="80">
<path d="M40 80C62.0914 80 80 62.0914 80 40C80 17.9086 62.0914 0 40 0C17.9086 0 0 17.9086 0 40C0 62.0914 17.9086 80 40 80Z" fill="white"/>
</mask>
<g mask="url(#mask0)">
<path d="M40.001 80C62.0924 80 80.001 62.0914 80.001 40C80.001 17.9086 62.0924 0 40.001 0C17.9096 0 0.000976562 17.9086 0.000976562 40C0.000976562 62.0914 17.9096 80 40.001 80Z" fill="#88F1FF"/>
<path d="M73.6608 27.6H-4.46924V119.21H73.6608V27.6Z" fill="#F8F9DC"/>
<path d="M85.4811 37.1199H7.35107V128.73H85.4811V37.1199Z" fill="#D1CE93"/>
<path d="M45.5222 55.7481C47.8222 52.5981 64.0622 28.4081 66.8422 24.1881C68.2822 21.9981 68.2322 20.6481 66.3822 19.2881C64.5322 17.9381 63.2222 18.3081 61.5822 20.3381C58.4022 24.2781 40.3022 47.0981 38.0022 50.2481" fill="#EDAD91"/>
<path d="M62.9722 18.9982C62.5222 19.3082 62.0722 19.7382 61.5822 20.3382C58.4022 24.2782 40.3022 47.0982 38.0022 50.2482L45.5222 55.7382C47.2822 53.3282 57.1622 38.6682 62.9722 29.9882V18.9982Z" fill="#E8B49A"/>
<path d="M38.0023 50.248C36.4823 52.328 36.9423 55.238 39.0123 56.758C41.0923 58.278 44.0023 57.818 45.5223 55.748C47.0423 53.668 46.5823 50.758 44.5123 49.238C42.4323 47.718 39.5123 48.178 38.0023 50.248Z" fill="#FCD2BB"/>
<path d="M23.4929 69.8286L17.8729 58.4486V51.5786C17.8729 50.5986 17.3929 49.6686 16.5929 49.0986L15.6129 48.3986C14.8729 47.8786 13.8429 48.2486 13.6129 49.1286L10.4929 61.2386C9.78289 63.9986 9.56289 66.8486 9.83289 69.6786L12.4429 96.9586L-8.28711 166.099L23.5829 169.129L39.4629 104.439L59.3929 78.1586L23.4929 69.8286Z" fill="#EDAD91"/>
<g opacity="0.1">
<g opacity="0.1">
<g opacity="0.1">
<g opacity="0.1">
<g opacity="0.1">
<g opacity="0.1">
<path opacity="0.1" d="M41.6428 101.569L59.3928 78.1687L23.4928 69.8387L17.8728 58.4587V94.9387C17.8728 98.6087 20.8428 101.579 24.5128 101.579H41.6428V101.569Z" fill="#42210B"/>
</g>
</g>
</g>
</g>
</g>
</g>
<path d="M55.5318 11.7695H24.4618C22.3218 11.7695 20.5818 13.5095 20.5818 15.6495V91.9995C20.5818 94.1395 22.3218 95.8795 24.4618 95.8795H55.5418C57.6818 95.8795 59.4218 94.1395 59.4218 91.9995V15.6495C59.4118 13.5095 57.6818 11.7695 55.5318 11.7695Z" fill="white"/>
<path d="M59.4118 48.5395V15.6495C59.4118 13.5095 57.6718 11.7695 55.5318 11.7695H24.4618C22.3218 11.7695 20.5818 13.5095 20.5818 15.6495V87.3695L59.4118 48.5395Z" fill="#D9F7FF"/>
<path d="M55.4818 9.1394H24.5118C20.8418 9.1394 17.8718 12.1094 17.8718 15.7794V91.9594C17.8718 95.6294 20.8418 98.5994 24.5118 98.5994H55.4818C59.1518 98.5994 62.1218 95.6294 62.1218 91.9594V15.7794C62.1218 12.1194 59.1518 9.1394 55.4818 9.1394ZM59.4118 91.9994C59.4118 94.1394 57.6718 95.8794 55.5318 95.8794H24.4618C22.3218 95.8794 20.5818 94.1394 20.5818 91.9994V15.6494C20.5818 13.5094 22.3218 11.7694 24.4618 11.7694H28.6618C28.9518 11.7694 29.1818 11.9994 29.1818 12.2894V12.7594C29.1818 13.3594 29.7318 14.8394 31.4318 14.8394C32.2918 14.8394 47.1618 14.8394 48.6818 14.8394C50.2018 14.8394 50.8618 13.4394 50.8618 12.7094V12.2994C50.8618 12.0094 51.0918 11.7794 51.3818 11.7794H55.5218C57.6618 11.7794 59.4018 13.5194 59.4018 15.6594V91.9994H59.4118Z" fill="#472EA0"/>
<path d="M66.4927 52.4188C65.6127 51.3888 64.0527 51.3088 63.0627 52.2388C61.3127 53.8688 59.9627 55.1488 59.2627 55.8088C57.4327 57.5488 57.1727 58.8288 58.6127 60.5088C60.0527 62.1788 61.3627 62.1188 63.3527 60.5588C64.1127 59.9688 65.5727 58.8188 67.4527 57.3388C68.5127 56.4988 68.6627 54.9488 67.7827 53.9188L66.4927 52.4188Z" fill="#EDAD91"/>
<path d="M67.2327 41.6487C66.2927 40.5587 64.6227 40.4687 63.5727 41.4487C61.7127 43.1887 60.2627 44.5487 59.5227 45.2587C57.5727 47.1087 57.2927 48.4787 58.8327 50.2687C60.3627 52.0487 61.7627 51.9787 63.8827 50.3287C64.6927 49.6987 66.2527 48.4687 68.2527 46.8887C69.3827 45.9887 69.5427 44.3387 68.6027 43.2387L67.2327 41.6487Z" fill="#EDAD91"/>
<path d="M66.2428 60.4188C65.4528 59.4988 64.0628 59.4288 63.1828 60.2588C61.6228 61.7188 60.4128 62.8488 59.7928 63.4488C58.1528 64.9988 57.9228 66.1488 59.2128 67.6488C60.4928 69.1388 61.6628 69.0888 63.4428 67.6988C64.1228 67.1688 65.4228 66.1488 67.1028 64.8188C68.0528 64.0688 68.1828 62.6788 67.3928 61.7688L66.2428 60.4188Z" fill="#EDAD91"/>
<path d="M28.3302 41.8993C28.3302 42.0493 28.2702 42.1793 28.1502 42.2793C28.0302 42.3893 27.9002 42.4493 27.7502 42.4493C27.5902 42.4493 27.4502 42.3893 27.3402 42.2493L26.1702 40.9093L24.9702 42.2493C24.8502 42.3793 24.7202 42.4493 24.5602 42.4493C24.4102 42.4493 24.2802 42.3993 24.1602 42.2793C24.0302 42.1693 23.9702 42.0393 23.9702 41.8993C23.9702 41.7793 24.0202 41.6593 24.1102 41.5493L25.4202 40.0993L24.1502 38.6793C24.0502 38.5693 24.0002 38.4493 24.0002 38.3293C24.0002 38.1793 24.0602 38.0493 24.1802 37.9493C24.3002 37.8293 24.4402 37.7793 24.5902 37.7793C24.7502 37.7793 24.8902 37.8393 25.0002 37.9793L26.1502 39.2793L27.3002 37.9793C27.4102 37.8493 27.5402 37.7793 27.7002 37.7793C27.8602 37.7793 27.9902 37.8293 28.1102 37.9493C28.2302 38.0593 28.2902 38.1893 28.2902 38.3293C28.2902 38.4493 28.2402 38.5693 28.1502 38.6793L26.8802 40.0993L28.1802 41.5493C28.2802 41.6493 28.3302 41.7793 28.3302 41.8993Z" fill="#1D3962"/>
<path d="M31.0302 39.7592C31.0902 39.7992 31.1102 39.8792 31.1102 39.9692C31.1102 40.0692 31.0802 40.1392 31.0302 40.1792C30.9702 40.2192 30.8902 40.2492 30.7702 40.2492H29.3202C29.2302 40.2492 29.1502 40.2192 29.0902 40.1692C29.0302 40.1192 29.0102 40.0492 29.0102 39.9592C29.0102 39.8492 29.0602 39.7492 29.1402 39.6692L29.9802 38.8292C30.1602 38.6492 30.2402 38.4892 30.2402 38.3492C30.2402 38.2592 30.2102 38.1992 30.1602 38.1492C30.1102 38.0992 30.0402 38.0692 29.9402 38.0692C29.8702 38.0692 29.7902 38.0792 29.7202 38.1092C29.6502 38.1292 29.5802 38.1592 29.5002 38.1992L29.4302 38.2392C29.4102 38.2492 29.3902 38.2592 29.3602 38.2792C29.3302 38.2992 29.3002 38.3092 29.2802 38.3192C29.2502 38.3292 29.2302 38.3292 29.2102 38.3292C29.1402 38.3292 29.0902 38.2992 29.0402 38.2392C28.9902 38.1892 28.9702 38.1192 28.9702 38.0292C28.9702 37.9792 28.9802 37.9292 29.0002 37.8992C29.0202 37.8592 29.0502 37.8292 29.0902 37.7992C29.2102 37.7192 29.3502 37.6592 29.5102 37.6092C29.6702 37.5692 29.8202 37.5492 29.9702 37.5492C30.1702 37.5492 30.3402 37.5792 30.4902 37.6392C30.6402 37.6992 30.7502 37.7892 30.8402 37.9092C30.9202 38.0292 30.9602 38.1592 30.9602 38.2992C30.9602 38.4492 30.9302 38.5892 30.8702 38.7192C30.8002 38.8392 30.6902 38.9892 30.5402 39.1492L29.9802 39.6992H30.7802C30.8902 39.6892 30.9702 39.7092 31.0302 39.7592Z" fill="#1D3962"/>
<path d="M35.0203 40.2692C35.1003 40.3392 35.1303 40.4292 35.1303 40.5492C35.1303 40.6592 35.0903 40.7492 35.0203 40.8292C34.9503 40.9092 34.8503 40.9492 34.7303 40.9492H33.8703V41.7592C33.8703 41.8692 33.8303 41.9592 33.7603 42.0392C33.6903 42.1092 33.5903 42.1492 33.4703 42.1492C33.3603 42.1492 33.2603 42.1092 33.1803 42.0392C33.1103 41.9692 33.0703 41.8792 33.0703 41.7592V40.9392H32.2103C32.1003 40.9392 32.0003 40.8992 31.9203 40.8192C31.8503 40.7492 31.8103 40.6492 31.8103 40.5392C31.8103 40.4292 31.8503 40.3392 31.9203 40.2592C31.9903 40.1892 32.0903 40.1492 32.2103 40.1492H33.0703V39.3292C33.0703 39.2192 33.1103 39.1292 33.1803 39.0492C33.2503 38.9792 33.3503 38.9392 33.4703 38.9392C33.5803 38.9392 33.6803 38.9792 33.7603 39.0492C33.8403 39.1192 33.8703 39.2092 33.8703 39.3292V40.1492H34.7303C34.8503 40.1492 34.9503 40.1892 35.0203 40.2692Z" fill="#1D3962"/>
<path d="M39.7104 37.7892C39.8604 37.7892 39.9904 37.8392 40.1104 37.9592C40.2304 38.0692 40.2904 38.1992 40.2904 38.3392C40.2904 38.4592 40.2404 38.5792 40.1404 38.6992L38.7104 40.2792V41.8692C38.7104 42.0592 38.6504 42.2092 38.5304 42.3092C38.4204 42.4092 38.2704 42.4592 38.0804 42.4592C37.8904 42.4592 37.7404 42.4092 37.6204 42.3092C37.5004 42.2092 37.4404 42.0592 37.4404 41.8692V40.2692L36.0204 38.6892C35.9204 38.5692 35.8604 38.4592 35.8604 38.3192C35.8604 38.1792 35.9204 38.0492 36.0404 37.9492C36.1604 37.8392 36.2904 37.7892 36.4404 37.7892C36.6004 37.7892 36.7404 37.8492 36.8504 37.9892L38.0604 39.3492L39.3004 37.9892C39.4204 37.8492 39.5504 37.7892 39.7104 37.7892Z" fill="#1D3962"/>
<path d="M42.85 39.7592C42.91 39.7992 42.93 39.8792 42.93 39.9692C42.93 40.0692 42.9 40.1392 42.85 40.1792C42.79 40.2192 42.71 40.2492 42.59 40.2492H41.14C41.05 40.2492 40.97 40.2192 40.91 40.1692C40.85 40.1192 40.83 40.0492 40.83 39.9592C40.83 39.8492 40.88 39.7492 40.96 39.6692L41.8 38.8292C41.98 38.6492 42.06 38.4892 42.06 38.3492C42.06 38.2592 42.03 38.1992 41.99 38.1492C41.93 38.1092 41.87 38.0792 41.77 38.0792C41.69 38.0792 41.62 38.0892 41.55 38.1192C41.48 38.1392 41.41 38.1692 41.32 38.2092L41.25 38.2492C41.24 38.2592 41.22 38.2692 41.18 38.2892C41.15 38.3092 41.12 38.3192 41.1 38.3292C41.07 38.3392 41.05 38.3392 41.03 38.3392C40.96 38.3392 40.91 38.3092 40.86 38.2492C40.81 38.1992 40.79 38.1292 40.79 38.0392C40.79 37.9892 40.8 37.9392 40.82 37.9092C40.84 37.8692 40.87 37.8392 40.91 37.8092C41.03 37.7292 41.17 37.6692 41.33 37.6192C41.49 37.5792 41.64 37.5492 41.79 37.5492C41.99 37.5492 42.16 37.5792 42.31 37.6392C42.46 37.6992 42.57 37.7892 42.66 37.9092C42.74 38.0292 42.78 38.1592 42.78 38.2992C42.78 38.4492 42.75 38.5892 42.69 38.7192C42.62 38.8392 42.51 38.9892 42.36 39.1492L41.8 39.6992H42.6C42.7 39.6892 42.79 39.7092 42.85 39.7592Z" fill="#1D3962"/>
<path d="M43.7902 40.1693C43.7102 40.0993 43.6802 40.0093 43.6802 39.8893C43.6802 39.7793 43.7202 39.6893 43.7902 39.6093C43.8602 39.5393 43.9602 39.4893 44.0802 39.4893H46.6102C46.7202 39.4893 46.8202 39.5293 46.9002 39.5993C46.9702 39.6693 47.0102 39.7593 47.0102 39.8793C47.0102 39.9993 46.9702 40.0793 46.9002 40.1593C46.8302 40.2393 46.7302 40.2793 46.6102 40.2793H44.0802C43.9602 40.2793 43.8602 40.2393 43.7902 40.1693ZM43.7902 41.4593C43.7102 41.3893 43.6802 41.2993 43.6802 41.1793C43.6802 41.0693 43.7202 40.9793 43.7902 40.8993C43.8602 40.8293 43.9602 40.7793 44.0802 40.7793H46.6102C46.7202 40.7793 46.8202 40.8193 46.9002 40.8893C46.9702 40.9593 47.0102 41.0493 47.0102 41.1693C47.0102 41.2793 46.9702 41.3693 46.9002 41.4493C46.8302 41.5293 46.7302 41.5693 46.6102 41.5693H44.0802C43.9602 41.5793 43.8602 41.5393 43.7902 41.4593Z" fill="#1D3962"/>
<path d="M51.6304 41.5793C51.7204 41.6593 51.7703 41.7793 51.7703 41.9293C51.7703 42.2493 51.5704 42.4093 51.1804 42.4093H48.8104C48.4204 42.4093 48.2203 42.2493 48.2203 41.9293C48.2203 41.7793 48.2704 41.6493 48.3604 41.5793C48.4504 41.4993 48.6004 41.4593 48.8104 41.4593H49.3604V39.1093L48.8203 39.4093C48.7403 39.4493 48.6604 39.4693 48.5804 39.4693C48.4504 39.4693 48.3504 39.4193 48.2504 39.3093C48.1604 39.1993 48.1104 39.0893 48.1104 38.9493C48.1104 38.7693 48.1804 38.6393 48.3504 38.5493L49.4504 37.9393C49.6504 37.8293 49.8404 37.7793 50.0104 37.7793C50.1904 37.7793 50.3404 37.8293 50.4504 37.9293C50.5604 38.0393 50.6203 38.1693 50.6203 38.3493V41.4493H51.1804C51.3904 41.4593 51.5404 41.4993 51.6304 41.5793Z" fill="#1D3962"/>
<path d="M55.3203 39.5792C55.5403 39.6992 55.7103 39.8792 55.8303 40.1192C55.9503 40.3492 56.0203 40.5992 56.0203 40.8892C56.0203 41.1892 55.9503 41.4692 55.8003 41.6992C55.6603 41.9392 55.4503 42.1292 55.2003 42.2592C54.9503 42.3892 54.6603 42.4692 54.3303 42.4692C53.6803 42.4692 53.2003 42.2692 52.8403 41.8692C52.4903 41.4692 52.3103 40.9092 52.3103 40.1692C52.3103 39.6892 52.3903 39.2592 52.5603 38.8892C52.7303 38.5192 52.9603 38.2492 53.2603 38.0492C53.5603 37.8492 53.9203 37.7592 54.3203 37.7592C54.5703 37.7592 54.8403 37.7992 55.1003 37.8792C55.3603 37.9592 55.6003 38.0692 55.7803 38.1992C55.8603 38.2492 55.9103 38.3192 55.9503 38.3792C55.9903 38.4392 56.0003 38.5092 56.0003 38.6092C56.0003 38.7392 55.9603 38.8592 55.8803 38.9492C55.8003 39.0392 55.7003 39.0892 55.5903 39.0892C55.5203 39.0892 55.4703 39.0792 55.4203 39.0592C55.3703 39.0392 55.3003 39.0092 55.2103 38.9592L55.0603 38.8892C54.9103 38.8192 54.7903 38.7692 54.6903 38.7292C54.5903 38.6892 54.4803 38.6792 54.3703 38.6792C54.1403 38.6792 53.9503 38.7792 53.8103 38.9792C53.6703 39.1892 53.5803 39.4592 53.5603 39.8292C53.6603 39.6892 53.8003 39.5792 53.9803 39.4992C54.1603 39.4192 54.3503 39.3792 54.5603 39.3792C54.8603 39.3892 55.1003 39.4592 55.3203 39.5792ZM54.7003 41.3792C54.8003 41.2592 54.8603 41.1192 54.8603 40.9292C54.8603 40.7392 54.8103 40.5892 54.7103 40.4792C54.6103 40.3592 54.4703 40.3092 54.2803 40.3092C54.1003 40.3092 53.9603 40.3592 53.8503 40.4792C53.7503 40.5992 53.6903 40.7392 53.6903 40.9292C53.6903 41.1092 53.7503 41.2592 53.8603 41.3792C53.9703 41.4992 54.1103 41.5492 54.2803 41.5492C54.4403 41.5492 54.5803 41.4992 54.7003 41.3792Z" fill="#1D3962"/>
<path d="M55.4111 18.2699H51.8911C51.6111 18.2699 51.3911 18.0499 51.3911 17.7699C51.3911 17.4899 51.6111 17.2699 51.8911 17.2699H55.4111C55.6911 17.2699 55.9111 17.4899 55.9111 17.7699C55.9111 18.0499 55.6911 18.2699 55.4111 18.2699Z" fill="white"/>
<path d="M49.581 18.2699H37.771C37.491 18.2699 37.271 18.0499 37.271 17.7699C37.271 17.4899 37.491 17.2699 37.771 17.2699H49.581C49.861 17.2699 50.081 17.4899 50.081 17.7699C50.081 18.0499 49.861 18.2699 49.581 18.2699Z" fill="white"/>
<path d="M35.6908 18.2699H24.5808C24.3008 18.2699 24.0808 18.0499 24.0808 17.7699C24.0808 17.4899 24.3008 17.2699 24.5808 17.2699H35.6908C35.9708 17.2699 36.1908 17.4899 36.1908 17.7699C36.1908 18.0499 35.9708 18.2699 35.6908 18.2699Z" fill="white"/>
<path d="M24.5808 24.9799C24.3008 24.9799 24.0808 24.7599 24.0808 24.4799V17.7699C24.0808 17.4899 24.3008 17.2699 24.5808 17.2699C24.8608 17.2699 25.0808 17.4899 25.0808 17.7699V24.4799C25.0808 24.7599 24.8608 24.9799 24.5808 24.9799Z" fill="white"/>
<path d="M24.5808 31.2801C24.3008 31.2801 24.0808 31.0601 24.0808 30.7801V27.0901C24.0808 26.8101 24.3008 26.5901 24.5808 26.5901C24.8608 26.5901 25.0808 26.8101 25.0808 27.0901V30.7801C25.0808 31.0501 24.8608 31.2801 24.5808 31.2801Z" fill="white"/>
</g>
<path d="M79 40C79 61.5391 61.5391 79 40 79C18.4609 79 1 61.5391 1 40C1 18.4609 18.4609 1 40 1C61.5391 1 79 18.4609 79 40Z" stroke="#38CE6A" stroke-width="2"/>
<path d="M68 80C74.6274 80 80 74.6274 80 68C80 61.3726 74.6274 56 68 56C61.3726 56 56 61.3726 56 68C56 74.6274 61.3726 80 68 80Z" fill="#38CE6A"/>
<path d="M74.4 63.2666C73.6 62.4666 72.3333 62.4666 71.6 63.2666L66.3333 68.5333L64.4 66.6C63.6 65.8 62.3333 65.8 61.6 66.6C60.8 67.4 60.8 68.6666 61.6 69.4L64.9333 72.7333C65.3333 73.1333 65.8 73.3333 66.3333 73.3333C66.8667 73.3333 67.3333 73.1333 67.7333 72.7333L74.4 66.0666C75.2 65.2666 75.2 64 74.4 63.2666ZM65.1333 70.1333C65 70.2666 64.8 70.3333 64.6667 70.3333C64.5333 70.3333 64.3333 70.2666 64.2 70.1333L62.5333 68.4666C62.2667 68.2 62.2667 67.8 62.5333 67.5333C62.8 67.2666 63.2 67.2666 63.4667 67.5333L65.1333 69.2C65.4 69.4666 65.4 69.8666 65.1333 70.1333Z" fill="white"/>
</svg>
