<svg width="80" height="80" viewBox="0 0 80 80" fill="none" xmlns="http://www.w3.org/2000/svg">
<mask id="mask0" mask-type="alpha" maskUnits="userSpaceOnUse" x="0" y="0" width="80" height="80">
<path d="M40 80C62.0914 80 80 62.0914 80 40C80 17.9086 62.0914 0 40 0C17.9086 0 0 17.9086 0 40C0 62.0914 17.9086 80 40 80Z" fill="white"/>
</mask>
<g mask="url(#mask0)">
<path d="M40.001 80C62.0924 80 80.001 62.0914 80.001 40C80.001 17.9086 62.0924 0 40.001 0C17.9096 0 0.000976562 17.9086 0.000976562 40C0.000976562 62.0914 17.9096 80 40.001 80Z" fill="#88F1FF"/>
<path d="M73.6608 27.6H-4.46924V119.21H73.6608V27.6Z" fill="#F8F9DC"/>
<path d="M85.4811 37.1199H7.35107V128.73H85.4811V37.1199Z" fill="#D1CE93"/>
<path d="M45.5222 55.7482C47.8222 52.5982 64.0622 28.4082 66.8422 24.1882C68.2822 21.9982 68.2322 20.6482 66.3822 19.2882C64.5322 17.9382 63.2222 18.3082 61.5822 20.3382C58.4022 24.2782 40.3022 47.0982 38.0022 50.2482" fill="#EDAD91"/>
<path d="M62.9722 18.9983C62.5222 19.3083 62.0722 19.7383 61.5822 20.3383C58.4022 24.2783 40.3022 47.0983 38.0022 50.2483L45.5222 55.7383C47.2822 53.3283 57.1622 38.6683 62.9722 29.9883V18.9983Z" fill="#E8B49A"/>
<path d="M38.0023 50.2481C36.4823 52.3281 36.9423 55.2381 39.0123 56.7581C41.0923 58.2781 44.0023 57.8181 45.5223 55.7481C47.0423 53.6681 46.5823 50.7581 44.5123 49.2381C42.4323 47.7181 39.5123 48.1781 38.0023 50.2481Z" fill="#FCD2BB"/>
<path d="M23.4929 69.8288L17.8729 58.4488V51.5788C17.8729 50.5988 17.3929 49.6688 16.5929 49.0988L15.6129 48.3988C14.8729 47.8788 13.8429 48.2488 13.6129 49.1288L10.4929 61.2388C9.78289 63.9988 9.56289 66.8488 9.83289 69.6788L12.4429 96.9588L-8.28711 166.099L23.5829 169.129L39.4629 104.439L59.3929 78.1588L23.4929 69.8288Z" fill="#EDAD91"/>
<g opacity="0.1">
<g opacity="0.1">
<g opacity="0.1">
<g opacity="0.1">
<g opacity="0.1">
<g opacity="0.1">
<path opacity="0.1" d="M41.6428 101.569L59.3928 78.1688L23.4928 69.8388L17.8728 58.4588V94.9388C17.8728 98.6088 20.8428 101.579 24.5128 101.579H41.6428V101.569Z" fill="#42210B"/>
</g>
</g>
</g>
</g>
</g>
</g>
<path d="M55.5318 11.7695H24.4618C22.3218 11.7695 20.5818 13.5095 20.5818 15.6495V91.9995C20.5818 94.1395 22.3218 95.8795 24.4618 95.8795H55.5418C57.6818 95.8795 59.4218 94.1395 59.4218 91.9995V15.6495C59.4118 13.5095 57.6818 11.7695 55.5318 11.7695Z" fill="white"/>
<path d="M59.4118 48.5395V15.6495C59.4118 13.5095 57.6718 11.7695 55.5318 11.7695H24.4618C22.3218 11.7695 20.5818 13.5095 20.5818 15.6495V87.3695L59.4118 48.5395Z" fill="#D9F7FF"/>
<path d="M55.4818 9.13947H24.5118C20.8418 9.13947 17.8718 12.1095 17.8718 15.7795V91.9595C17.8718 95.6295 20.8418 98.5995 24.5118 98.5995H55.4818C59.1518 98.5995 62.1218 95.6295 62.1218 91.9595V15.7795C62.1218 12.1195 59.1518 9.13947 55.4818 9.13947ZM59.4118 91.9995C59.4118 94.1395 57.6718 95.8795 55.5318 95.8795H24.4618C22.3218 95.8795 20.5818 94.1395 20.5818 91.9995V15.6495C20.5818 13.5095 22.3218 11.7695 24.4618 11.7695H28.6618C28.9518 11.7695 29.1818 11.9995 29.1818 12.2895V12.7595C29.1818 13.3595 29.7318 14.8395 31.4318 14.8395C32.2918 14.8395 47.1618 14.8395 48.6818 14.8395C50.2018 14.8395 50.8618 13.4395 50.8618 12.7095V12.2995C50.8618 12.0095 51.0918 11.7795 51.3818 11.7795H55.5218C57.6618 11.7795 59.4018 13.5195 59.4018 15.6595V91.9995H59.4118Z" fill="#472EA0"/>
<path d="M66.4927 52.4189C65.6127 51.3889 64.0527 51.3089 63.0627 52.2389C61.3127 53.8689 59.9627 55.1489 59.2627 55.8089C57.4327 57.5489 57.1727 58.8289 58.6127 60.5089C60.0527 62.1789 61.3627 62.1189 63.3527 60.5589C64.1127 59.9689 65.5727 58.8189 67.4527 57.3389C68.5127 56.4989 68.6627 54.9489 67.7827 53.9189L66.4927 52.4189Z" fill="#EDAD91"/>
<path d="M67.2327 41.6488C66.2927 40.5588 64.6227 40.4688 63.5727 41.4488C61.7127 43.1888 60.2627 44.5488 59.5227 45.2588C57.5727 47.1088 57.2927 48.4788 58.8327 50.2688C60.3627 52.0488 61.7627 51.9788 63.8827 50.3288C64.6927 49.6988 66.2527 48.4688 68.2527 46.8888C69.3827 45.9888 69.5427 44.3388 68.6027 43.2388L67.2327 41.6488Z" fill="#EDAD91"/>
<path d="M66.2428 60.4188C65.4528 59.4988 64.0628 59.4288 63.1828 60.2588C61.6228 61.7188 60.4128 62.8488 59.7928 63.4488C58.1528 64.9988 57.9228 66.1488 59.2128 67.6488C60.4928 69.1388 61.6628 69.0888 63.4428 67.6988C64.1228 67.1688 65.4228 66.1488 67.1028 64.8188C68.0528 64.0688 68.1828 62.6788 67.3928 61.7688L66.2428 60.4188Z" fill="#EDAD91"/>
<path d="M55.4111 18.2699H51.8911C51.6111 18.2699 51.3911 18.0499 51.3911 17.7699C51.3911 17.4899 51.6111 17.2699 51.8911 17.2699H55.4111C55.6911 17.2699 55.9111 17.4899 55.9111 17.7699C55.9111 18.0499 55.6911 18.2699 55.4111 18.2699Z" fill="white"/>
<path d="M49.581 18.2699H37.771C37.491 18.2699 37.271 18.0499 37.271 17.7699C37.271 17.4899 37.491 17.2699 37.771 17.2699H49.581C49.861 17.2699 50.081 17.4899 50.081 17.7699C50.081 18.0499 49.861 18.2699 49.581 18.2699Z" fill="white"/>
<path d="M35.6908 18.2699H24.5808C24.3008 18.2699 24.0808 18.0499 24.0808 17.7699C24.0808 17.4899 24.3008 17.2699 24.5808 17.2699H35.6908C35.9708 17.2699 36.1908 17.4899 36.1908 17.7699C36.1908 18.0499 35.9708 18.2699 35.6908 18.2699Z" fill="white"/>
<path d="M24.5808 24.9799C24.3008 24.9799 24.0808 24.7599 24.0808 24.4799V17.7699C24.0808 17.4899 24.3008 17.2699 24.5808 17.2699C24.8608 17.2699 25.0808 17.4899 25.0808 17.7699V24.4799C25.0808 24.7599 24.8608 24.9799 24.5808 24.9799Z" fill="white"/>
<path d="M24.5808 31.28C24.3008 31.28 24.0808 31.06 24.0808 30.78V27.09C24.0808 26.81 24.3008 26.59 24.5808 26.59C24.8608 26.59 25.0808 26.81 25.0808 27.09V30.78C25.0808 31.05 24.8608 31.28 24.5808 31.28Z" fill="white"/>
<path d="M23.8208 46.45H56.1708C56.9969 46.45 57.6708 45.7761 57.6708 44.95V35.05C57.6708 34.2238 56.9969 33.55 56.1708 33.55H23.8208C22.9947 33.55 22.3208 34.2238 22.3208 35.05V44.95C22.3208 45.7761 22.9947 46.45 23.8208 46.45Z" stroke="#38CE6A"/>
<path d="M27.9206 41.9401C27.9206 42.1701 27.7906 42.2901 27.5206 42.2901H25.0206C24.9106 42.2901 24.8206 42.2601 24.7506 42.1901C24.6806 42.1201 24.6506 42.0401 24.6506 41.9401C24.6506 41.8101 24.7006 41.6901 24.8006 41.5801L26.3006 39.9701C26.4806 39.7701 26.6206 39.5801 26.7006 39.4101C26.7906 39.2401 26.8306 39.0701 26.8306 38.9101C26.8306 38.7001 26.7706 38.5501 26.6506 38.4401C26.5306 38.3301 26.3606 38.2801 26.1406 38.2801C25.9606 38.2801 25.7906 38.3101 25.6206 38.3801C25.4506 38.4501 25.2806 38.5401 25.1106 38.6601C25.0706 38.6901 25.0206 38.7201 24.9806 38.7401C24.9406 38.7601 24.8906 38.7701 24.8506 38.7701C24.7806 38.7701 24.7106 38.7401 24.6606 38.6701C24.6106 38.6001 24.5806 38.5201 24.5806 38.4201C24.5806 38.3501 24.5906 38.3001 24.6206 38.2501C24.6406 38.2001 24.6806 38.1601 24.7406 38.1101C24.9306 37.9601 25.1606 37.8301 25.4206 37.7401C25.6806 37.6501 25.9406 37.6101 26.2006 37.6101C26.6506 37.6101 27.0106 37.7201 27.2806 37.9501C27.5506 38.1801 27.6806 38.4901 27.6806 38.8701C27.6806 39.1401 27.6206 39.3901 27.5106 39.6201C27.4006 39.8501 27.2006 40.1201 26.9306 40.4101L25.7806 41.6001H27.5206C27.7806 41.6001 27.9206 41.7101 27.9206 41.9401Z" fill="black"/>
<path d="M28.6705 42.1802C28.5805 42.0902 28.5305 41.9702 28.5305 41.8302C28.5305 41.6902 28.5805 41.5702 28.6705 41.4802C28.7605 41.3902 28.8805 41.3402 29.0205 41.3402C29.1605 41.3402 29.2805 41.3902 29.3705 41.4802C29.4605 41.5702 29.5105 41.6902 29.5105 41.8302C29.5105 41.9702 29.4605 42.0902 29.3705 42.1802C29.2805 42.2702 29.1605 42.3202 29.0205 42.3202C28.8705 42.3202 28.7605 42.2802 28.6705 42.1802Z" fill="black"/>
<path d="M36.3604 41.9502C36.3604 42.0502 36.3204 42.1302 36.2504 42.2102C36.1804 42.2902 36.0904 42.3302 35.9904 42.3302C35.8804 42.3302 35.7904 42.2802 35.7104 42.1902L34.7804 41.1602L33.8504 42.1902C33.7704 42.2802 33.6704 42.3202 33.5704 42.3202C33.4704 42.3202 33.3904 42.2802 33.3104 42.2102C33.2404 42.1402 33.2004 42.0502 33.2004 41.9502C33.2004 41.8502 33.2404 41.7602 33.3204 41.6802L34.2804 40.6302L33.3704 39.6402C33.2904 39.5602 33.2504 39.4702 33.2504 39.3702C33.2504 39.2702 33.2904 39.1802 33.3604 39.1102C33.4304 39.0402 33.5204 39.0002 33.6204 39.0002C33.7304 39.0002 33.8204 39.0402 33.9004 39.1302L34.7804 40.0902L35.6604 39.1302C35.7404 39.0402 35.8404 39.0002 35.9404 39.0002C36.0404 39.0002 36.1304 39.0402 36.2004 39.1102C36.2704 39.1802 36.3104 39.2702 36.3104 39.3702C36.3104 39.4702 36.2704 39.5602 36.1904 39.6402L35.2804 40.6302L36.2504 41.6802C36.3204 41.7602 36.3604 41.8502 36.3604 41.9502Z" fill="black"/>
<path d="M38.6604 39.8902C38.6604 40.0302 38.5804 40.0902 38.4304 40.0902H36.9704C36.9004 40.0902 36.8504 40.0702 36.8104 40.0302C36.7704 39.9902 36.7504 39.9402 36.7504 39.8802C36.7504 39.8002 36.7804 39.7302 36.8404 39.6702L37.7104 38.7302C37.8204 38.6102 37.9004 38.5002 37.9504 38.4102C38.0004 38.3102 38.0204 38.2102 38.0204 38.1202C38.0204 38.0002 37.9904 37.9102 37.9204 37.8402C37.8504 37.7702 37.7504 37.7402 37.6204 37.7402C37.5204 37.7402 37.4104 37.7602 37.3104 37.8002C37.2104 37.8402 37.1104 37.8902 37.0104 37.9602C36.9804 37.9802 36.9604 37.9902 36.9304 38.0002C36.9004 38.0102 36.8804 38.0202 36.8504 38.0202C36.8104 38.0202 36.7704 38.0002 36.7404 37.9602C36.7104 37.9202 36.6904 37.8702 36.6904 37.8102C36.6904 37.7702 36.7004 37.7402 36.7104 37.7102C36.7204 37.6802 36.7504 37.6502 36.7804 37.6302C36.8904 37.5402 37.0204 37.4702 37.1804 37.4202C37.3304 37.3702 37.4804 37.3402 37.6304 37.3402C37.8904 37.3402 38.1004 37.4102 38.2604 37.5402C38.4204 37.6702 38.5004 37.8502 38.5004 38.0802C38.5004 38.2402 38.4704 38.3802 38.4004 38.5202C38.3304 38.6602 38.2204 38.8102 38.0604 38.9802L37.4004 39.6902H38.4104C38.5804 39.6902 38.6604 39.7602 38.6604 39.8902Z" fill="black"/>
<path d="M42.3207 40.2002C42.3707 40.2502 42.4007 40.3202 42.4007 40.4102C42.4007 40.4902 42.3707 40.5602 42.3207 40.6202C42.2707 40.6702 42.2007 40.7002 42.1107 40.7002H41.0807V41.7202C41.0807 41.8002 41.0507 41.8702 41.0007 41.9302C40.9507 41.9902 40.8807 42.0202 40.7907 42.0202C40.7107 42.0202 40.6407 41.9902 40.5807 41.9302C40.5307 41.8702 40.5007 41.8002 40.5007 41.7202V40.7002H39.4707C39.3907 40.7002 39.3207 40.6702 39.2607 40.6202C39.2007 40.5602 39.1807 40.5002 39.1807 40.4102C39.1807 40.3302 39.2107 40.2602 39.2607 40.2002C39.3107 40.1402 39.3807 40.1202 39.4707 40.1202H40.5107V39.0902C40.5107 39.0102 40.5407 38.9402 40.5907 38.8802C40.6507 38.8302 40.7107 38.8002 40.8007 38.8002C40.8807 38.8002 40.9507 38.8302 41.0107 38.8802C41.0707 38.9302 41.0907 39.0002 41.0907 39.0902V40.1202H42.1207C42.2007 40.1102 42.2707 40.1402 42.3207 40.2002Z" fill="black"/>
<path d="M45.5906 39.0603C45.6506 39.0203 45.7106 39.0003 45.7806 39.0003C45.8806 39.0003 45.9706 39.0303 46.0506 39.1003C46.1306 39.1703 46.1706 39.2503 46.1706 39.3503C46.1706 39.4003 46.1606 39.4503 46.1306 39.5003L44.3306 43.2603C44.2606 43.4103 44.1406 43.4803 43.9806 43.4803C43.8806 43.4803 43.7906 43.4503 43.7106 43.3803C43.6306 43.3203 43.5906 43.2403 43.5906 43.1403C43.5906 43.0903 43.6006 43.0403 43.6306 42.9803L44.0806 42.0403L42.8606 39.4903C42.8406 39.4503 42.8306 39.4003 42.8306 39.3403C42.8306 39.2403 42.8706 39.1503 42.9606 39.0803C43.0506 39.0103 43.1406 38.9703 43.2506 38.9703C43.3206 38.9703 43.3906 38.9903 43.4506 39.0303C43.5106 39.0703 43.5606 39.1303 43.6006 39.2003L44.5206 41.2303L45.4306 39.2003C45.4806 39.1603 45.5306 39.1003 45.5906 39.0603Z" fill="black"/>
<path d="M48.3806 39.8902C48.3806 40.0302 48.3006 40.0902 48.1506 40.0902H46.6906C46.6206 40.0902 46.5706 40.0702 46.5306 40.0302C46.4906 39.9902 46.4706 39.9402 46.4706 39.8802C46.4706 39.8002 46.5006 39.7302 46.5606 39.6702L47.4306 38.7302C47.5406 38.6102 47.6206 38.5002 47.6706 38.4102C47.7206 38.3202 47.7406 38.2102 47.7406 38.1202C47.7406 38.0002 47.7106 37.9102 47.6406 37.8402C47.5706 37.7702 47.4706 37.7402 47.3406 37.7402C47.2406 37.7402 47.1306 37.7602 47.0306 37.8002C46.9306 37.8402 46.8306 37.8902 46.7306 37.9602C46.7006 37.9802 46.6806 37.9902 46.6506 38.0002C46.6206 38.0102 46.6006 38.0202 46.5706 38.0202C46.5306 38.0202 46.4906 38.0002 46.4606 37.9602C46.4306 37.9202 46.4106 37.8702 46.4106 37.8102C46.4106 37.7702 46.4206 37.7402 46.4306 37.7102C46.4406 37.6802 46.4706 37.6502 46.5006 37.6302C46.6106 37.5402 46.7406 37.4702 46.9006 37.4202C47.0506 37.3702 47.2006 37.3402 47.3506 37.3402C47.6106 37.3402 47.8206 37.4102 47.9806 37.5402C48.1406 37.6702 48.2206 37.8502 48.2206 38.0802C48.2206 38.2402 48.1906 38.3802 48.1206 38.5202C48.0506 38.6602 47.9406 38.8102 47.7806 38.9802L47.1206 39.6902H48.1306C48.3006 39.6902 48.3806 39.7602 48.3806 39.8902Z" fill="black"/>
<path d="M49.0304 39.9502C48.9804 39.9002 48.9504 39.8302 48.9504 39.7402C48.9504 39.6602 48.9804 39.5902 49.0304 39.5302C49.0904 39.4702 49.1504 39.4502 49.2404 39.4502H51.8704C51.9504 39.4502 52.0204 39.4802 52.0804 39.5402C52.1304 39.6002 52.1604 39.6702 52.1604 39.7502C52.1604 39.8302 52.1304 39.9002 52.0804 39.9502C52.0204 40.0002 51.9604 40.0302 51.8704 40.0302H49.2404C49.1504 40.0302 49.0904 40.0102 49.0304 39.9502ZM49.0304 41.2702C48.9804 41.2102 48.9504 41.1502 48.9504 41.0602C48.9504 40.9802 48.9804 40.9102 49.0304 40.8502C49.0904 40.8002 49.1504 40.7702 49.2404 40.7702H51.8704C51.9504 40.7702 52.0204 40.8002 52.0804 40.8602C52.1304 40.9202 52.1604 40.9902 52.1604 41.0702C52.1604 41.1502 52.1304 41.2202 52.0804 41.2702C52.0204 41.3202 51.9604 41.3502 51.8704 41.3502H49.2404C49.1504 41.3502 49.0904 41.3202 49.0304 41.2702Z" fill="black"/>
<path d="M53.7507 40.8603C53.7007 40.8103 53.6807 40.7303 53.6807 40.6403C53.6807 40.4003 53.7207 40.1903 53.8107 40.0303C53.9007 39.8603 54.0207 39.6803 54.1907 39.4803C54.3207 39.3203 54.4207 39.1903 54.4807 39.0803C54.5407 38.9803 54.5707 38.8603 54.5707 38.7203C54.5707 38.5703 54.5207 38.4603 54.4107 38.3703C54.3007 38.2803 54.1607 38.2403 53.9707 38.2403C53.8107 38.2403 53.6607 38.2703 53.5207 38.3403C53.3807 38.4103 53.2107 38.5103 53.0107 38.6303C52.9007 38.6903 52.8107 38.7203 52.7407 38.7203C52.6707 38.7203 52.6007 38.6903 52.5507 38.6203C52.4907 38.5503 52.4707 38.4703 52.4707 38.3803C52.4707 38.2503 52.5207 38.1503 52.6307 38.0703C52.8107 37.9103 53.0307 37.7903 53.2807 37.7003C53.5307 37.6103 53.7807 37.5703 54.0407 37.5703C54.3107 37.5703 54.5507 37.6203 54.7507 37.7103C54.9607 37.8003 55.1207 37.9303 55.2407 38.0903C55.3607 38.2503 55.4107 38.4403 55.4107 38.6503C55.4107 38.8803 55.3507 39.0803 55.2507 39.2503C55.1407 39.4203 54.9807 39.6103 54.7707 39.8203C54.5907 40.0003 54.4607 40.1603 54.3707 40.2803C54.2807 40.4103 54.2207 40.5503 54.2007 40.7003C54.1907 40.7703 54.1607 40.8203 54.1107 40.8603C54.0607 40.9003 54.0107 40.9203 53.9407 40.9203C53.8607 40.9403 53.8007 40.9203 53.7507 40.8603ZM53.5907 42.1803C53.5007 42.0903 53.4507 41.9703 53.4507 41.8303C53.4507 41.6903 53.5007 41.5703 53.5907 41.4803C53.6807 41.3903 53.8007 41.3403 53.9407 41.3403C54.0807 41.3403 54.2007 41.3903 54.2907 41.4803C54.3807 41.5703 54.4307 41.6903 54.4307 41.8303C54.4307 41.9703 54.3807 42.0903 54.2907 42.1803C54.2007 42.2703 54.0807 42.3203 53.9407 42.3203C53.8007 42.3203 53.6907 42.2803 53.5907 42.1803Z" fill="black"/>
</g>
<path d="M79 40C79 61.5391 61.5391 79 40 79C18.4609 79 1 61.5391 1 40C1 18.4609 18.4609 1 40 1C61.5391 1 79 18.4609 79 40Z" stroke="#38CE6A" stroke-width="2"/>
<path d="M68 80C74.6274 80 80 74.6274 80 68C80 61.3726 74.6274 56 68 56C61.3726 56 56 61.3726 56 68C56 74.6274 61.3726 80 68 80Z" fill="#38CE6A"/>
<path d="M74.4 63.2667C73.6 62.4667 72.3333 62.4667 71.6 63.2667L66.3333 68.5334L64.4 66.6C63.6 65.8 62.3333 65.8 61.6 66.6C60.8 67.4 60.8 68.6667 61.6 69.4L64.9333 72.7334C65.3333 73.1334 65.8 73.3334 66.3333 73.3334C66.8667 73.3334 67.3333 73.1334 67.7333 72.7334L74.4 66.0667C75.2 65.2667 75.2 64 74.4 63.2667ZM65.1333 70.1334C65 70.2667 64.8 70.3334 64.6667 70.3334C64.5333 70.3334 64.3333 70.2667 64.2 70.1334L62.5333 68.4667C62.2667 68.2 62.2667 67.8 62.5333 67.5334C62.8 67.2667 63.2 67.2667 63.4667 67.5334L65.1333 69.2C65.4 69.4667 65.4 69.8667 65.1333 70.1334Z" fill="white"/>
</svg>
