<svg width="16" height="10" viewBox="0 0 16 10" fill="none" xmlns="http://www.w3.org/2000/svg">
<path d="M1.25195 0.585946C1.62701 0.211004 2.13561 0.000374964 2.66594 0.000374919C3.19627 0.000374873 3.70489 0.211004 4.07994 0.585946L7.99895 4.50494L11.918 0.585945C12.2952 0.221629 12.8004 0.0200407 13.3248 0.0245973C13.8491 0.0291539 14.3508 0.239497 14.7216 0.610313C15.0924 0.98113 15.3027 1.48275 15.3073 2.00714C15.3119 2.53153 15.1103 3.03674 14.7459 3.41395L9.41295 8.74695C9.03789 9.12189 8.52928 9.33252 7.99895 9.33252C7.46862 9.33252 6.96 9.12189 6.58495 8.74695L1.25195 3.41395C0.877013 3.03889 0.666368 2.53028 0.666368 1.99995C0.666368 1.46962 0.877012 0.961002 1.25195 0.585946ZM10.1949 5.13295C10.2568 5.19496 10.3303 5.24416 10.4112 5.27773C10.4921 5.3113 10.5788 5.32858 10.6664 5.32858C10.754 5.32858 10.8408 5.3113 10.9217 5.27773C11.0026 5.24416 11.0761 5.19496 11.1379 5.13295L13.8049 2.46595C13.925 2.33989 13.991 2.17189 13.9889 1.99782C13.9868 1.82375 13.9167 1.6574 13.7936 1.53431C13.6705 1.41121 13.5041 1.34112 13.3301 1.339C13.156 1.33687 12.988 1.40289 12.862 1.52295L10.1949 4.18995C10.1329 4.25181 10.0837 4.3253 10.0502 4.40621C10.0166 4.48712 9.99931 4.57385 9.99931 4.66145C9.99931 4.74904 10.0166 4.83578 10.0502 4.91669C10.0837 4.99759 10.1329 5.07109 10.1949 5.13295Z" fill="#6C96D3"/>
</svg>
