<svg width="160" height="160" viewBox="0 0 160 160" fill="none" xmlns="http://www.w3.org/2000/svg">
<path d="M86.8526 0C34.9684 0 0 35.4316 0 79.5474C0 123.653 28.8 160 72.9158 160C131.432 160 160 133.484 160 89.3684C160 45.2526 135.547 0 86.8526 0Z" fill="#92D8FF"/>
<path d="M138.505 107.979L60.5469 131.326L39.8838 62.3579L42.8838 31.779L109.684 11.7684L138.505 107.979Z" fill="#F8F9DC"/>
<g opacity="0.2">
<path opacity="0.2" d="M53.7996 43.6422L39.8838 62.358L42.8838 31.7791L53.7996 43.6422Z" fill="#3C2415"/>
</g>
<path d="M53.168 37.2212L39.8838 62.358L42.8838 31.7791L53.168 37.2212Z" fill="#EAE3B9"/>
<g opacity="0.08">
<path d="M54.7996 57.4106C54.2312 57.4106 53.7154 57.0422 53.547 56.4738C53.3364 55.779 53.7364 55.0527 54.4207 54.8422L102.947 40.3054C103.642 40.0948 104.368 40.4948 104.579 41.179C104.789 41.8738 104.389 42.6001 103.705 42.8106L55.1785 57.3475C55.0522 57.4001 54.9259 57.4106 54.7996 57.4106Z" fill="#1D3962"/>
<path d="M56.6097 63.4527C56.0412 63.4527 55.5254 63.0842 55.357 62.5158C55.1465 61.8211 55.5465 61.0948 56.2307 60.8842L104.757 46.3474C105.452 46.1369 106.178 46.5369 106.389 47.2211C106.599 47.9053 106.199 48.6421 105.515 48.8527L56.9886 63.3895C56.8518 63.4316 56.7254 63.4527 56.6097 63.4527Z" fill="#1D3962"/>
<path d="M64.4519 67.6737C63.8835 67.6737 63.3677 67.3053 63.1993 66.7369C62.9888 66.0422 63.3888 65.3159 64.073 65.1053L76.3783 61.4211C77.073 61.2106 77.7993 61.6106 78.0098 62.2948C78.2204 62.9895 77.8204 63.7159 77.1362 63.9264L64.8309 67.6106C64.7046 67.6632 64.5783 67.6737 64.4519 67.6737Z" fill="#1D3962"/>
<path d="M66.2625 73.7158C65.6941 73.7158 65.1783 73.3474 65.0099 72.779C64.7993 72.0843 65.1993 71.3579 65.8835 71.1474L78.1888 67.4632C78.8835 67.2527 79.6099 67.6527 79.8204 68.3369C80.0309 69.0316 79.6309 69.7579 78.9467 69.9685L66.6414 73.6527C66.5151 73.6948 66.3888 73.7158 66.2625 73.7158Z" fill="#1D3962"/>
<g opacity="0.5">
<path opacity="0.5" d="M59.1674 70.0527C58.8201 70.0527 58.4832 69.9685 58.178 69.8C57.6832 69.5369 57.3253 69.0948 57.1674 68.5579C57.0095 68.0211 57.0622 67.4527 57.3253 66.9579C57.5885 66.4632 58.0306 66.1053 58.5674 65.9474C59.1043 65.7895 59.6727 65.8421 60.1674 66.1053C60.6622 66.3685 61.0201 66.8106 61.178 67.3474C61.3359 67.8843 61.2832 68.4527 61.0201 68.9474C60.7569 69.4421 60.3148 69.8 59.778 69.9579C59.5674 70.0211 59.3674 70.0527 59.1674 70.0527ZM58.6727 68.1053C58.7148 68.2316 58.799 68.3474 58.9253 68.4106C59.0516 68.4737 59.1885 68.4948 59.3253 68.4527C59.4516 68.4106 59.5674 68.3264 59.6306 68.2C59.6937 68.0843 59.7148 67.9369 59.6727 67.8C59.6306 67.6737 59.5464 67.5579 59.4201 67.4948C59.3043 67.4316 59.1569 67.4106 59.0201 67.4527C58.8937 67.4948 58.778 67.579 58.7148 67.7053C58.6411 67.8211 58.6306 67.9685 58.6727 68.1053Z" fill="#1D3962"/>
</g>
<path d="M60.9785 76.0843C60.6311 76.0843 60.2943 76.0001 59.989 75.8316C59.4943 75.5685 59.1364 75.1264 58.9785 74.5895C58.8206 74.0527 58.8732 73.4843 59.1364 72.9895C59.3995 72.4948 59.8416 72.1369 60.3785 71.979C61.4837 71.6422 62.6522 72.2737 62.989 73.3895C63.3258 74.4948 62.6943 75.6632 61.5785 76.0001C61.3785 76.0527 61.1785 76.0843 60.9785 76.0843ZM61.4732 73.8422L60.4732 74.1369C60.5153 74.2632 60.5995 74.379 60.7258 74.4422C60.8522 74.5053 60.989 74.5264 61.1258 74.4843C61.2522 74.4422 61.3679 74.3579 61.4311 74.2316C61.5048 74.1158 61.5153 73.9685 61.4732 73.8422ZM60.9785 73.4632C60.9258 73.4632 60.8732 73.4737 60.8311 73.4843C60.5574 73.5685 60.3995 73.8527 60.4837 74.1369L61.4837 73.8422C61.4416 73.7158 61.3574 73.6 61.2311 73.5369C61.1469 73.4843 61.0627 73.4632 60.9785 73.4632Z" fill="#1D3962"/>
</g>
<g opacity="0.08">
<path d="M63.389 86.0842C62.8205 86.0842 62.3047 85.7158 62.1363 85.1474C61.9258 84.4526 62.3258 83.7263 63.01 83.5158L111.536 68.979C112.231 68.7684 112.957 69.1684 113.168 69.8526C113.378 70.5474 112.978 71.2737 112.294 71.4842L63.7679 86.0211C63.6416 86.0632 63.5153 86.0842 63.389 86.0842Z" fill="#1D3962"/>
<path d="M65.1995 92.1263C64.6311 92.1263 64.1153 91.7579 63.9469 91.1895C63.7363 90.4947 64.1363 89.7684 64.8206 89.5579L113.347 75.0211C114.042 74.8105 114.768 75.2105 114.978 75.8947C115.189 76.5895 114.789 77.3158 114.105 77.5263L65.5785 92.0632C65.4521 92.1053 65.3258 92.1263 65.1995 92.1263Z" fill="#1D3962"/>
<path d="M73.0413 96.3474C72.4729 96.3474 71.9571 95.979 71.7887 95.4105C71.5781 94.7158 71.9781 93.9895 72.6624 93.779L84.9676 90.0948C85.6624 89.8842 86.3887 90.2842 86.5992 90.9684C86.8097 91.6527 86.4097 92.3895 85.7255 92.6L73.4202 96.2842C73.2939 96.3369 73.1676 96.3474 73.0413 96.3474Z" fill="#1D3962"/>
<path d="M74.8523 102.389C74.2839 102.389 73.7681 102.021 73.5997 101.453C73.3892 100.758 73.7892 100.032 74.4734 99.8211L86.7787 96.1369C87.4734 95.9263 88.1997 96.3263 88.4102 97.0105C88.6208 97.7053 88.2208 98.4316 87.5365 98.6421L75.2313 102.326C75.105 102.368 74.9786 102.389 74.8523 102.389Z" fill="#1D3962"/>
<g opacity="0.5">
<path opacity="0.5" d="M67.7571 98.7158C67.4097 98.7158 67.0729 98.6316 66.7676 98.4632C66.2729 98.2 65.915 97.7579 65.7571 97.2211C65.4203 96.1158 66.0518 94.9474 67.1676 94.6106C67.7045 94.4527 68.2729 94.5053 68.7676 94.7685C69.2624 95.0316 69.6203 95.4737 69.7782 96.0106C69.9361 96.5474 69.8834 97.1158 69.6203 97.6106C69.3571 98.1053 68.915 98.4632 68.3782 98.6211C68.1676 98.6948 67.9571 98.7158 67.7571 98.7158ZM67.2624 96.7685C67.3045 96.8948 67.3887 97.0106 67.515 97.0737C67.6308 97.1369 67.7782 97.1579 67.915 97.1158C68.0413 97.0737 68.1571 96.9895 68.2203 96.8632C68.2834 96.7474 68.3045 96.6 68.2624 96.4632C68.2203 96.3369 68.136 96.2211 68.0097 96.1579C67.8939 96.0948 67.7466 96.0737 67.6097 96.1158C67.4834 96.1579 67.3676 96.2421 67.3045 96.3685C67.2413 96.4948 67.2203 96.6421 67.2624 96.7685Z" fill="#1D3962"/>
</g>
<g opacity="0.5">
<path opacity="0.5" d="M69.5678 104.758C69.2205 104.758 68.8836 104.674 68.5783 104.505C68.0836 104.242 67.7257 103.8 67.5678 103.263C67.4099 102.726 67.4626 102.158 67.7257 101.663C67.9889 101.168 68.431 100.811 68.9678 100.653C69.5047 100.495 70.0731 100.547 70.5678 100.811C71.0626 101.074 71.4204 101.516 71.5783 102.053C71.7362 102.589 71.6836 103.158 71.4204 103.653C71.1573 104.147 70.7152 104.505 70.1783 104.663C69.9678 104.726 69.7678 104.758 69.5678 104.758ZM69.5678 102.137C69.5152 102.137 69.4626 102.147 69.4204 102.158C69.2941 102.2 69.1783 102.284 69.1152 102.411C69.052 102.526 69.031 102.674 69.0731 102.811C69.1152 102.937 69.1994 103.053 69.3257 103.116C69.4415 103.179 69.5889 103.2 69.7257 103.158C69.852 103.116 69.9678 103.032 70.031 102.905C70.0941 102.789 70.1152 102.642 70.0731 102.505C70.031 102.379 69.9468 102.263 69.8204 102.2C69.7362 102.158 69.652 102.137 69.5678 102.137Z" fill="#1D3962"/>
</g>
<path d="M94.6311 58.6316C94.0627 58.6316 93.5469 58.2632 93.3785 57.6948C93.168 57 93.568 56.2737 94.2522 56.0632L106.557 52.379C107.252 52.1684 107.979 52.5684 108.189 53.2527C108.4 53.9474 108 54.6737 107.315 54.8842L95.0101 58.5684C94.8838 58.6211 94.7575 58.6316 94.6311 58.6316Z" fill="#1D3962"/>
<path d="M96.4417 64.6737C95.8733 64.6737 95.3575 64.3053 95.1891 63.7369C94.9785 63.0421 95.3785 62.3158 96.0627 62.1053L108.368 58.4211C109.063 58.2105 109.789 58.6105 110 59.2948C110.21 59.979 109.81 60.7158 109.126 60.9263L96.8206 64.6105C96.6943 64.6526 96.568 64.6737 96.4417 64.6737Z" fill="#1D3962"/>
<g opacity="0.5">
<path opacity="0.5" d="M89.3469 61C88.9996 61 88.6627 60.9158 88.3575 60.7474C87.8627 60.4842 87.5048 60.0421 87.3469 59.5053C87.0101 58.4 87.6417 57.2316 88.7575 56.8948C89.2943 56.7369 89.8627 56.7895 90.3575 57.0527C90.8522 57.3158 91.2101 57.7579 91.368 58.2948C91.5259 58.8316 91.4733 59.4 91.2101 59.8948C90.9469 60.3895 90.5048 60.7474 89.968 60.9053C89.7575 60.979 89.5469 61 89.3469 61ZM88.8522 59.0527C88.8943 59.179 88.9785 59.2948 89.1048 59.3579C89.2206 59.4211 89.368 59.4421 89.5048 59.4C89.7785 59.3158 89.9364 59.0316 89.8522 58.7474C89.8101 58.6211 89.7259 58.5053 89.5996 58.4421C89.4838 58.379 89.3364 58.3579 89.1996 58.4C89.0733 58.4421 88.9575 58.5264 88.8943 58.6527C88.8312 58.779 88.8101 58.9263 88.8522 59.0527Z" fill="#1D3962"/>
</g>
<g opacity="0.5">
<path opacity="0.5" d="M91.1577 67.0421C90.8103 67.0421 90.4735 66.9579 90.1682 66.7895C89.6735 66.5263 89.3156 66.0842 89.1577 65.5474C88.9998 65.0105 89.0524 64.4421 89.3156 63.9474C89.5787 63.4526 90.0208 63.0947 90.5577 62.9369C91.0945 62.779 91.6629 62.8316 92.1577 63.0947C92.6524 63.3579 93.0103 63.8 93.1682 64.3369C93.3261 64.8737 93.2734 65.4421 93.0103 65.9369C92.7471 66.4316 92.305 66.7895 91.7682 66.9474C91.5682 67.0105 91.3577 67.0421 91.1577 67.0421ZM90.6629 65.0947C90.705 65.2211 90.7892 65.3368 90.9156 65.4C91.0313 65.4632 91.1787 65.4842 91.3156 65.4421C91.4419 65.4 91.5577 65.3158 91.6208 65.1895C91.684 65.0737 91.705 64.9263 91.6629 64.7895C91.6208 64.6632 91.5366 64.5474 91.4103 64.4842C91.284 64.4211 91.1471 64.4 91.0103 64.4421C90.884 64.4842 90.7682 64.5684 90.705 64.6947C90.6313 64.8211 90.6208 64.9579 90.6629 65.0947Z" fill="#1D3962"/>
</g>
<path d="M103.22 87.3053C102.652 87.3053 102.136 86.9369 101.968 86.3684C101.757 85.6737 102.157 84.9474 102.842 84.7369L115.147 81.0526C115.842 80.8421 116.568 81.2421 116.778 81.9263C116.989 82.6211 116.589 83.3474 115.905 83.5579L103.599 87.2421C103.473 87.2842 103.347 87.3053 103.22 87.3053Z" fill="#1D3962"/>
<path d="M105.031 93.3474C104.463 93.3474 103.947 92.979 103.778 92.4105C103.568 91.7158 103.968 90.9895 104.652 90.779L116.957 87.0948C117.652 86.8842 118.378 87.2842 118.589 87.9684C118.799 88.6632 118.399 89.3895 117.715 89.6L105.41 93.2842C105.284 93.3263 105.157 93.3474 105.031 93.3474Z" fill="#1D3962"/>
<path d="M97.9468 89.6737C97.0416 89.6737 96.21 89.0842 95.9363 88.179C95.5995 87.0737 96.231 85.9053 97.3468 85.5684C98.4521 85.2421 99.6205 85.8632 99.9574 86.979C100.115 87.5158 100.063 88.0842 99.7995 88.579C99.5363 89.0737 99.0942 89.4316 98.5574 89.5895C98.3468 89.6526 98.1468 89.6737 97.9468 89.6737ZM98.4416 87.4316L97.4416 87.7263C97.5258 88 97.81 88.1579 98.0942 88.0737C98.3679 88 98.5258 87.7053 98.4416 87.4316ZM97.9468 87.0526C97.8942 87.0526 97.8521 87.0632 97.7995 87.0737C97.6731 87.1158 97.5574 87.2 97.4942 87.3263C97.431 87.4421 97.41 87.5895 97.4521 87.7263L98.4521 87.4316C98.3784 87.2 98.1679 87.0526 97.9468 87.0526Z" fill="#1D3962"/>
<g opacity="0.5">
<path opacity="0.5" d="M99.7574 95.7158C98.8521 95.7158 98.0205 95.1263 97.7469 94.2211C97.41 93.1158 98.0416 91.9474 99.1574 91.6105C99.6942 91.4526 100.263 91.5053 100.757 91.7684C101.252 92.0316 101.61 92.4737 101.768 93.0105C101.926 93.5474 101.873 94.1158 101.61 94.6105C101.347 95.1053 100.905 95.4632 100.368 95.6211C100.157 95.6842 99.9469 95.7158 99.7574 95.7158ZM99.2521 93.7684C99.2942 93.8948 99.3784 94.0105 99.5047 94.0737C99.6205 94.1369 99.7679 94.1579 99.9047 94.1158C100.178 94.0316 100.336 93.7474 100.252 93.4632C100.168 93.1895 99.8732 93.0316 99.5995 93.1158C99.4732 93.1579 99.3574 93.2421 99.2942 93.3684C99.2311 93.4948 99.21 93.6316 99.2521 93.7684Z" fill="#1D3962"/>
</g>
</g>
<path d="M53.7996 56.4106C53.2312 56.4106 52.7154 56.0422 52.547 55.4738C52.3364 54.779 52.7364 54.0527 53.4207 53.8422L101.947 39.3054C102.642 39.0948 103.368 39.4948 103.579 40.179C103.789 40.8738 103.389 41.6001 102.705 41.8106L54.1785 56.3475C54.0522 56.4001 53.9259 56.4106 53.7996 56.4106Z" fill="#74A592"/>
<path d="M55.6097 62.4527C55.0412 62.4527 54.5254 62.0842 54.357 61.5158C54.1465 60.8211 54.5465 60.0948 55.2307 59.8842L103.757 45.3474C104.452 45.1369 105.178 45.5369 105.389 46.2211C105.599 46.9053 105.199 47.6421 104.515 47.8527L55.9886 62.3895C55.8518 62.4316 55.7254 62.4527 55.6097 62.4527Z" fill="#74A592"/>
<path d="M63.4519 66.6737C62.8835 66.6737 62.3677 66.3053 62.1993 65.7369C61.9888 65.0422 62.3888 64.3159 63.073 64.1053L75.3783 60.4211C76.073 60.2106 76.7993 60.6106 77.0098 61.2948C77.2204 61.9895 76.8204 62.7159 76.1362 62.9264L63.8309 66.6106C63.7046 66.6632 63.5783 66.6737 63.4519 66.6737Z" fill="#74A592"/>
<path d="M65.2625 72.7158C64.6941 72.7158 64.1783 72.3474 64.0099 71.779C63.7993 71.0843 64.1993 70.3579 64.8835 70.1474L77.1888 66.4632C77.8835 66.2527 78.6099 66.6527 78.8204 67.3369C79.0309 68.0316 78.6309 68.7579 77.9467 68.9685L65.6414 72.6527C65.5151 72.6948 65.3888 72.7158 65.2625 72.7158Z" fill="#74A592"/>
<g opacity="0.5">
<path opacity="0.5" d="M58.1674 69.0527C57.8201 69.0527 57.4832 68.9685 57.178 68.8C56.6832 68.5369 56.3253 68.0948 56.1674 67.5579C56.0095 67.0211 56.0622 66.4527 56.3253 65.9579C56.5885 65.4632 57.0306 65.1053 57.5674 64.9474C58.1043 64.7895 58.6727 64.8421 59.1674 65.1053C59.6622 65.3685 60.0201 65.8106 60.178 66.3474C60.3359 66.8843 60.2832 67.4527 60.0201 67.9474C59.7569 68.4421 59.3148 68.8 58.778 68.9579C58.5674 69.0211 58.3674 69.0527 58.1674 69.0527ZM57.6727 67.1053C57.7148 67.2316 57.799 67.3474 57.9253 67.4106C58.0516 67.4737 58.1885 67.4948 58.3253 67.4527C58.4516 67.4106 58.5674 67.3264 58.6306 67.2C58.6937 67.0843 58.7148 66.9369 58.6727 66.8C58.6306 66.6737 58.5464 66.5579 58.4201 66.4948C58.3043 66.4316 58.1569 66.4106 58.0201 66.4527C57.8937 66.4948 57.778 66.579 57.7148 66.7053C57.6411 66.8211 57.6306 66.9685 57.6727 67.1053Z" fill="#74A592"/>
</g>
<path d="M59.9785 75.0843C59.6311 75.0843 59.2943 75.0001 58.989 74.8316C58.4943 74.5685 58.1364 74.1264 57.9785 73.5895C57.8206 73.0527 57.8732 72.4843 58.1364 71.9895C58.3995 71.4948 58.8416 71.1369 59.3785 70.979C60.4837 70.6422 61.6522 71.2737 61.989 72.3895C62.3258 73.4948 61.6943 74.6632 60.5785 75.0001C60.3785 75.0527 60.1785 75.0843 59.9785 75.0843ZM60.4732 72.8422L59.4732 73.1369C59.5153 73.2632 59.5995 73.379 59.7258 73.4422C59.8522 73.5053 59.989 73.5264 60.1258 73.4843C60.2522 73.4422 60.3679 73.3579 60.4311 73.2316C60.5048 73.1158 60.5153 72.9685 60.4732 72.8422ZM59.9785 72.4632C59.9258 72.4632 59.8732 72.4737 59.8311 72.4843C59.5574 72.5685 59.3995 72.8527 59.4837 73.1369L60.4837 72.8422C60.4416 72.7158 60.3574 72.6 60.2311 72.5369C60.1469 72.4843 60.0627 72.4632 59.9785 72.4632Z" fill="#74A592"/>
<path d="M62.389 85.0842C61.8205 85.0842 61.3047 84.7158 61.1363 84.1474C60.9258 83.4526 61.3258 82.7263 62.01 82.5158L110.536 67.979C111.231 67.7684 111.957 68.1684 112.168 68.8526C112.378 69.5474 111.978 70.2737 111.294 70.4842L62.7679 85.0211C62.6416 85.0632 62.5153 85.0842 62.389 85.0842Z" fill="#74A592"/>
<path d="M64.1995 91.1263C63.6311 91.1263 63.1153 90.7579 62.9469 90.1895C62.7363 89.4947 63.1363 88.7684 63.8206 88.5579L112.347 74.0211C113.042 73.8105 113.768 74.2105 113.978 74.8947C114.189 75.5895 113.789 76.3158 113.105 76.5263L64.5785 91.0632C64.4521 91.1053 64.3258 91.1263 64.1995 91.1263Z" fill="#74A592"/>
<path d="M72.0413 95.3474C71.4729 95.3474 70.9571 94.979 70.7887 94.4105C70.5781 93.7158 70.9781 92.9895 71.6624 92.779L83.9676 89.0948C84.6624 88.8842 85.3887 89.2842 85.5992 89.9684C85.8097 90.6527 85.4097 91.3895 84.7255 91.6L72.4202 95.2842C72.2939 95.3369 72.1676 95.3474 72.0413 95.3474Z" fill="#74A592"/>
<path d="M73.8523 101.389C73.2839 101.389 72.7681 101.021 72.5997 100.453C72.3892 99.7579 72.7892 99.0316 73.4734 98.8211L85.7787 95.1369C86.4734 94.9263 87.1997 95.3263 87.4102 96.0105C87.6208 96.7053 87.2208 97.4316 86.5365 97.6421L74.2313 101.326C74.105 101.368 73.9786 101.389 73.8523 101.389Z" fill="#74A592"/>
<g opacity="0.5">
<path opacity="0.5" d="M66.7571 97.7158C66.4097 97.7158 66.0729 97.6316 65.7676 97.4632C65.2729 97.2 64.915 96.7579 64.7571 96.2211C64.4203 95.1158 65.0518 93.9474 66.1676 93.6106C66.7045 93.4527 67.2729 93.5053 67.7676 93.7685C68.2624 94.0316 68.6203 94.4737 68.7782 95.0106C68.9361 95.5474 68.8834 96.1158 68.6203 96.6106C68.3571 97.1053 67.915 97.4632 67.3782 97.6211C67.1676 97.6948 66.9571 97.7158 66.7571 97.7158ZM66.2624 95.7685C66.3045 95.8948 66.3887 96.0106 66.515 96.0737C66.6308 96.1369 66.7782 96.1579 66.915 96.1158C67.0413 96.0737 67.1571 95.9895 67.2203 95.8632C67.2834 95.7474 67.3045 95.6 67.2624 95.4632C67.2203 95.3369 67.136 95.2211 67.0097 95.1579C66.8939 95.0948 66.7466 95.0737 66.6097 95.1158C66.4834 95.1579 66.3676 95.2421 66.3045 95.3685C66.2413 95.4948 66.2203 95.6421 66.2624 95.7685Z" fill="#74A592"/>
</g>
<g opacity="0.5">
<path opacity="0.5" d="M68.5678 103.758C68.2205 103.758 67.8836 103.674 67.5783 103.505C67.0836 103.242 66.7257 102.8 66.5678 102.263C66.4099 101.726 66.4626 101.158 66.7257 100.663C66.9889 100.168 67.431 99.8106 67.9678 99.6527C68.5047 99.4948 69.0731 99.5474 69.5678 99.8106C70.0626 100.074 70.4204 100.516 70.5783 101.053C70.7362 101.589 70.6836 102.158 70.4204 102.653C70.1573 103.147 69.7152 103.505 69.1783 103.663C68.9678 103.726 68.7678 103.758 68.5678 103.758ZM68.5678 101.137C68.5152 101.137 68.4626 101.147 68.4204 101.158C68.2941 101.2 68.1783 101.284 68.1152 101.411C68.052 101.526 68.031 101.674 68.0731 101.811C68.1152 101.937 68.1994 102.053 68.3257 102.116C68.4415 102.179 68.5889 102.2 68.7257 102.158C68.852 102.116 68.9678 102.032 69.031 101.905C69.0941 101.789 69.1152 101.642 69.0731 101.505C69.031 101.379 68.9468 101.263 68.8204 101.2C68.7362 101.158 68.652 101.137 68.5678 101.137Z" fill="#74A592"/>
</g>
<path d="M93.6311 57.6316C93.0627 57.6316 92.5469 57.2632 92.3785 56.6948C92.168 56 92.568 55.2737 93.2522 55.0632L105.557 51.379C106.252 51.1684 106.979 51.5684 107.189 52.2527C107.4 52.9474 107 53.6737 106.315 53.8842L94.0101 57.5684C93.8838 57.6211 93.7575 57.6316 93.6311 57.6316Z" fill="#74A592"/>
<path d="M95.4417 63.6737C94.8733 63.6737 94.3575 63.3053 94.1891 62.7369C93.9785 62.0421 94.3785 61.3158 95.0627 61.1053L107.368 57.4211C108.063 57.2105 108.789 57.6105 109 58.2948C109.21 58.979 108.81 59.7158 108.126 59.9263L95.8206 63.6105C95.6943 63.6526 95.568 63.6737 95.4417 63.6737Z" fill="#74A592"/>
<g opacity="0.5">
<path opacity="0.5" d="M88.3469 60C87.9996 60 87.6627 59.9158 87.3575 59.7474C86.8627 59.4842 86.5048 59.0421 86.3469 58.5053C86.0101 57.4 86.6417 56.2316 87.7575 55.8948C88.2943 55.7369 88.8627 55.7895 89.3575 56.0527C89.8522 56.3158 90.2101 56.7579 90.368 57.2948C90.5259 57.8316 90.4733 58.4 90.2101 58.8948C89.9469 59.3895 89.5048 59.7474 88.968 59.9053C88.7575 59.979 88.5469 60 88.3469 60ZM87.8522 58.0527C87.8943 58.179 87.9785 58.2948 88.1048 58.3579C88.2206 58.4211 88.368 58.4421 88.5048 58.4C88.7785 58.3158 88.9364 58.0316 88.8522 57.7474C88.8101 57.6211 88.7259 57.5053 88.5996 57.4421C88.4838 57.379 88.3364 57.3579 88.1996 57.4C88.0733 57.4421 87.9575 57.5264 87.8943 57.6527C87.8312 57.779 87.8101 57.9263 87.8522 58.0527Z" fill="#74A592"/>
</g>
<g opacity="0.5">
<path opacity="0.5" d="M90.1577 66.0421C89.8103 66.0421 89.4735 65.9579 89.1682 65.7895C88.6735 65.5263 88.3156 65.0842 88.1577 64.5474C87.9998 64.0105 88.0524 63.4421 88.3156 62.9474C88.5787 62.4526 89.0208 62.0947 89.5577 61.9369C90.0945 61.779 90.6629 61.8316 91.1577 62.0947C91.6524 62.3579 92.0103 62.8 92.1682 63.3369C92.3261 63.8737 92.2734 64.4421 92.0103 64.9369C91.7471 65.4316 91.305 65.7895 90.7682 65.9474C90.5682 66.0105 90.3577 66.0421 90.1577 66.0421ZM89.6629 64.0947C89.705 64.2211 89.7892 64.3368 89.9156 64.4C90.0313 64.4632 90.1787 64.4842 90.3156 64.4421C90.4419 64.4 90.5577 64.3158 90.6208 64.1895C90.684 64.0737 90.705 63.9263 90.6629 63.7895C90.6208 63.6632 90.5366 63.5474 90.4103 63.4842C90.284 63.4211 90.1471 63.4 90.0103 63.4421C89.884 63.4842 89.7682 63.5684 89.705 63.6947C89.6313 63.8211 89.6208 63.9579 89.6629 64.0947Z" fill="#74A592"/>
</g>
<path d="M102.22 86.3053C101.652 86.3053 101.136 85.9369 100.968 85.3684C100.757 84.6737 101.157 83.9474 101.842 83.7369L114.147 80.0526C114.842 79.8421 115.568 80.2421 115.778 80.9263C115.989 81.6211 115.589 82.3474 114.905 82.5579L102.599 86.2421C102.473 86.2842 102.347 86.3053 102.22 86.3053Z" fill="#74A592"/>
<path d="M104.031 92.3474C103.463 92.3474 102.947 91.979 102.778 91.4105C102.568 90.7158 102.968 89.9895 103.652 89.779L115.957 86.0948C116.652 85.8842 117.378 86.2842 117.589 86.9684C117.799 87.6632 117.399 88.3895 116.715 88.6L104.41 92.2842C104.284 92.3263 104.157 92.3474 104.031 92.3474Z" fill="#74A592"/>
<path d="M96.9468 88.6737C96.0416 88.6737 95.21 88.0842 94.9363 87.179C94.5995 86.0737 95.231 84.9053 96.3468 84.5684C97.4521 84.2421 98.6205 84.8632 98.9574 85.979C99.1152 86.5158 99.0626 87.0842 98.7995 87.579C98.5363 88.0737 98.0942 88.4316 97.5574 88.5895C97.3468 88.6526 97.1468 88.6737 96.9468 88.6737ZM97.4416 86.4316L96.4416 86.7263C96.5258 87 96.81 87.1579 97.0942 87.0737C97.3679 87 97.5258 86.7053 97.4416 86.4316ZM96.9468 86.0526C96.8942 86.0526 96.8521 86.0632 96.7995 86.0737C96.6731 86.1158 96.5574 86.2 96.4942 86.3263C96.431 86.4421 96.41 86.5895 96.4521 86.7263L97.4521 86.4316C97.3784 86.2 97.1679 86.0526 96.9468 86.0526Z" fill="#74A592"/>
<g opacity="0.5">
<path opacity="0.5" d="M98.7574 94.7158C97.8521 94.7158 97.0205 94.1263 96.7469 93.2211C96.41 92.1158 97.0416 90.9474 98.1574 90.6105C98.6942 90.4526 99.2626 90.5053 99.7574 90.7684C100.252 91.0316 100.61 91.4737 100.768 92.0105C100.926 92.5474 100.873 93.1158 100.61 93.6105C100.347 94.1053 99.9047 94.4632 99.3679 94.6211C99.1574 94.6842 98.9469 94.7158 98.7574 94.7158ZM98.2521 92.7684C98.2942 92.8948 98.3784 93.0105 98.5047 93.0737C98.6205 93.1369 98.7679 93.1579 98.9047 93.1158C99.1784 93.0316 99.3363 92.7474 99.2521 92.4632C99.1679 92.1895 98.8732 92.0316 98.5995 92.1158C98.4732 92.1579 98.3574 92.2421 98.2942 92.3684C98.2311 92.4948 98.21 92.6316 98.2521 92.7684Z" fill="#74A592"/>
</g>
<mask id="mask0" mask-type="alpha" maskUnits="userSpaceOnUse" x="0" y="0" width="160" height="160">
<path d="M86.8526 0C34.9684 0 0 35.4316 0 79.5474C0 123.653 28.8 160 72.9158 160C131.432 160 160 133.484 160 89.3684C160 45.2526 135.547 0 86.8526 0Z" fill="#92D8FF"/>
</mask>
<g mask="url(#mask0)">
<path d="M66.8537 95.0631C69.4853 91.4632 88.0642 63.7895 91.2432 58.9579C92.8853 56.4526 92.8326 54.9053 90.7169 53.3579C88.6011 51.8105 87.1063 52.2316 85.2221 54.5684C81.5905 59.0737 60.8747 85.1789 58.2432 88.7895" fill="#FCD2BB"/>
<path d="M86.8116 53.0316C86.2958 53.3789 85.78 53.8737 85.2221 54.5579C81.5905 59.0631 60.8747 85.1684 58.2432 88.7789L66.8432 95.0631C68.8537 92.3158 80.1484 75.5368 86.8011 65.6105V53.0316H86.8116Z" fill="#E8B49A"/>
<path d="M58.254 88.779C56.5171 91.1579 57.0329 94.4842 59.4118 96.2211C61.7908 97.9579 65.1171 97.4316 66.8539 95.0632C68.5908 92.6842 68.075 89.3579 65.6961 87.6211C63.3171 85.8842 59.9908 86.4 58.254 88.779Z" fill="#FCD2BB"/>
<path opacity="0.05" d="M43.6638 107.168L37.2322 94.1474V86.2843C37.2322 85.158 36.6848 84.1053 35.769 83.4527L34.6427 82.6527C33.8006 82.0527 32.6111 82.4843 32.3585 83.4948L28.7901 97.3474C27.9796 100.495 27.7164 103.768 28.0322 107.011L31.0111 138.211L7.31641 217.284L43.769 220.747L61.9375 146.758L84.7375 116.705L43.6638 107.168Z" fill="#1D3962"/>
<path d="M41.6638 90.1685L35.2322 77.1474V69.2843C35.2322 68.158 34.6848 67.1053 33.769 66.4527L32.6427 65.6527C31.8006 65.0527 30.6111 65.4843 30.3585 66.4948L26.7901 80.3474C25.9796 83.4948 25.7164 86.7685 26.0322 90.0106L29.0111 121.211L5.31641 200.284L41.769 203.747L59.9375 129.758L82.7375 99.7053L41.6638 90.1685Z" fill="#FCD2BB"/>
<path d="M78.3159 44.7685H42.7685C40.3159 44.7685 38.3369 46.758 38.3369 49.2001V136.526C38.3369 138.979 40.3264 140.958 42.7685 140.958H78.3159C80.7685 140.958 82.7474 138.968 82.7474 136.526V49.2001C82.7474 46.7474 80.7685 44.7685 78.3159 44.7685Z" fill="#D9E021"/>
<path d="M78.2527 41.758H42.8317C38.6422 41.758 35.2422 45.158 35.2422 49.3475V136.484C35.2422 140.674 38.6422 144.074 42.8317 144.074H78.2632C82.4527 144.074 85.8527 140.674 85.8527 136.484V49.3475C85.8527 45.158 82.4527 41.758 78.2527 41.758ZM82.7474 136.526C82.7474 138.979 80.758 140.958 78.3159 140.958H42.7685C40.3159 140.958 38.3369 138.969 38.3369 136.526V49.2001C38.3369 46.7475 40.3264 44.7685 42.7685 44.7685H47.579C47.9053 44.7685 48.179 45.0317 48.179 45.3685V45.9053C48.179 46.6001 48.8106 48.2843 50.758 48.2843C51.7369 48.2843 68.758 48.2843 70.4948 48.2843C72.2317 48.2843 72.9896 46.6843 72.9896 45.8527V45.3685C72.9896 45.0422 73.2527 44.7685 73.5896 44.7685H78.3264C80.779 44.7685 82.758 46.758 82.758 49.2001V136.526H82.7474Z" fill="#4D4D4D"/>
<path d="M90.842 91.2528C89.8315 90.0844 88.0525 89.9791 86.9157 91.0423C84.9157 92.9159 83.3683 94.3686 82.5683 95.1265C80.4736 97.1159 80.1789 98.5896 81.8315 100.505C83.4736 102.421 84.9789 102.348 87.2525 100.569C88.1262 99.8949 89.7894 98.5791 91.9367 96.8844C93.1473 95.9265 93.3262 94.1475 92.3157 92.9686L90.842 91.2528Z" fill="#FCD2BB"/>
<path d="M91.6946 78.9265C90.6209 77.6738 88.7157 77.5686 87.5051 78.7054C85.3788 80.6949 83.7262 82.2528 82.8735 83.0633C80.642 85.1791 80.3262 86.7475 82.0841 88.8001C83.842 90.8423 85.4314 90.758 87.863 88.8633C88.7893 88.1475 90.5683 86.737 92.863 84.9265C94.1578 83.9054 94.3367 82.0107 93.263 80.758L91.6946 78.9265Z" fill="#FCD2BB"/>
<path d="M90.5581 100.4C89.6529 99.3581 88.0634 99.2633 87.0529 100.211C85.2739 101.884 83.8845 103.179 83.1792 103.853C81.3055 105.632 81.0423 106.937 82.516 108.653C83.9897 110.358 85.3266 110.295 87.3581 108.705C88.1371 108.105 89.6213 106.926 91.5371 105.411C92.6213 104.558 92.7687 102.969 91.8739 101.916L90.5581 100.4Z" fill="#FCD2BB"/>
</g>
<path d="M24.8104 82.3054H16.463C15.5367 82.3054 14.7788 81.5475 14.7788 80.6212V77.1475C14.7788 76.2212 15.5367 75.4633 16.463 75.4633H24.8104C25.7367 75.4633 26.4946 76.2212 26.4946 77.1475V80.6212C26.4946 81.5369 25.7367 82.3054 24.8104 82.3054Z" fill="#8C7B6A"/>
<path d="M57.5368 90.2527L53.7895 96.7369L52.1789 99.5369C51.0842 101.432 49.0631 102.6 46.8631 102.6H36.1368C33.9368 102.6 31.9158 101.432 30.821 99.5369L29.2105 96.7369L25.4631 90.2527C24.3684 88.358 24.3684 86.0211 25.4631 84.1159L30.221 75.8632L32 72.7896C32.3684 72.158 33.0421 71.7685 33.7684 71.7685H49.2C49.9368 71.7685 50.6105 72.158 50.9789 72.7896L52.7579 75.8632L57.5158 84.1159C58.6316 86.0106 58.6316 88.3475 57.5368 90.2527Z" fill="#95B3D1"/>
<g opacity="0.2">
<path opacity="0.2" d="M57.5368 90.2527L53.7895 96.7369H29.2105L25.4631 90.2527C24.3684 88.358 24.3684 86.0212 25.4631 84.1159L30.221 75.8633H52.7684L57.5263 84.1159C58.6316 86.0106 58.6316 88.3475 57.5368 90.2527Z" fill="#3B2314"/>
</g>
<path d="M75.3262 81.1369V110.905C75.3262 112.6 73.9473 113.969 72.2631 113.969H10.7262C9.04203 113.969 7.66309 112.59 7.66309 110.905V81.1369C7.66309 79.4527 9.04203 78.0738 10.7262 78.0738H72.2631C73.9473 78.0738 75.3262 79.4527 75.3262 81.1369Z" fill="#95B3D1"/>
<path d="M10.063 85.5264C9.67348 85.5264 9.34717 85.2106 9.34717 84.8106V83.0738C9.34717 82.2001 9.68401 81.358 10.2945 80.7159C10.9682 80.0001 11.9156 79.6001 12.9051 79.6001H20.6314C21.0209 79.6001 21.3472 79.9159 21.3472 80.3159C21.3472 80.7159 21.0314 81.0317 20.6314 81.0317H12.9051C12.3051 81.0317 11.7366 81.2738 11.3261 81.7054C10.9682 82.0843 10.7682 82.5685 10.7682 83.0843V84.8212C10.7787 85.2001 10.463 85.5264 10.063 85.5264Z" fill="white"/>
<path d="M72.2628 78.0738H72.126V107.705C72.126 109.4 70.747 110.769 69.0628 110.769H7.67334V110.895C7.67334 112.59 9.05229 113.958 10.7365 113.958H72.2733C73.9575 113.958 75.3365 112.579 75.3365 110.895V81.1369C75.326 79.4527 73.947 78.0738 72.2628 78.0738Z" fill="#98A8BA"/>
<path d="M75.3262 87.1475V110.895C75.3262 112.59 73.9473 113.958 72.2631 113.958H10.7262C9.04203 113.958 7.66309 112.579 7.66309 110.895V87.1475H75.3262Z" fill="#FBA252"/>
<path d="M72.1365 87.1475V107.705C72.1365 109.4 70.7575 110.769 69.0733 110.769H7.67334V110.895C7.67334 112.59 9.05229 113.958 10.7365 113.958H72.2733C73.9575 113.958 75.3365 112.579 75.3365 110.895V87.1475H72.1365Z" fill="#F8884C"/>
<path d="M41.495 111.263C49.913 111.263 56.7371 104.439 56.7371 96.0212C56.7371 87.6032 49.913 80.7791 41.495 80.7791C33.0771 80.7791 26.2529 87.6032 26.2529 96.0212C26.2529 104.439 33.0771 111.263 41.495 111.263Z" fill="#8C7B6A"/>
<path d="M41.4948 108.158C48.1977 108.158 53.6316 102.724 53.6316 96.0211C53.6316 89.3182 48.1977 83.8843 41.4948 83.8843C34.7918 83.8843 29.3579 89.3182 29.3579 96.0211C29.3579 102.724 34.7918 108.158 41.4948 108.158Z" fill="#F3FAFD"/>
<path d="M10.063 103.316C9.67348 103.316 9.34717 103 9.34717 102.6V89.9264C9.34717 89.5369 9.66296 89.2106 10.063 89.2106C10.463 89.2106 10.7787 89.5264 10.7787 89.9264V102.6C10.7787 103 10.463 103.316 10.063 103.316Z" fill="white"/>
<path d="M10.063 108.39C9.67348 108.39 9.34717 108.074 9.34717 107.674V105.263C9.34717 104.874 9.66296 104.547 10.063 104.547C10.463 104.547 10.7787 104.863 10.7787 105.263V107.674C10.7787 108.063 10.463 108.39 10.063 108.39Z" fill="white"/>
<path opacity="0.1" d="M126.253 49.2842C136.242 49.2842 144.348 41.1789 144.348 31.1895C144.348 21.2 136.242 13.0947 126.253 13.0947C116.263 13.0947 108.158 21.2 108.158 31.1895C108.158 41.1789 116.263 49.2842 126.253 49.2842Z" fill="#1D3962"/>
<path d="M124.253 47.2842C134.242 47.2842 142.348 39.1789 142.348 29.1895C142.348 19.2 134.242 11.0947 124.253 11.0947C114.263 11.0947 106.158 19.2 106.158 29.1895C106.158 39.1789 114.263 47.2842 124.253 47.2842Z" fill="#E54C6E"/>
<path d="M129.432 36.8631C128.789 36.8631 128.158 36.621 127.674 36.1262L117.316 25.7578C116.337 24.7789 116.337 23.1999 117.316 22.2315C118.295 21.2526 119.874 21.2526 120.842 22.2315L131.21 32.5999C132.189 33.5789 132.189 35.1578 131.21 36.1262C130.705 36.621 130.074 36.8631 129.432 36.8631Z" fill="white"/>
<path d="M119.074 36.8631C118.432 36.8631 117.8 36.621 117.316 36.1262C116.337 35.1473 116.337 33.5684 117.316 32.5999L127.674 22.2315C128.653 21.2526 130.232 21.2526 131.2 22.2315C132.179 23.2105 132.179 24.7894 131.2 25.7578L120.832 36.1262C120.347 36.621 119.705 36.8631 119.074 36.8631Z" fill="white"/>
<path d="M121.432 15.242C121.168 15.242 120.937 15.0631 120.884 14.7894C120.832 14.4947 121.021 14.1999 121.326 14.1368C122.295 13.9578 123.274 13.8526 124.253 13.8526C124.558 13.8526 124.811 14.1052 124.811 14.4105C124.811 14.7157 124.558 14.9684 124.253 14.9684C123.347 14.9684 122.432 15.0526 121.537 15.2315C121.495 15.242 121.463 15.242 121.432 15.242Z" fill="white"/>
<path d="M109.484 29.7473C109.179 29.7473 108.926 29.4947 108.926 29.1894C108.926 22.9789 112.81 17.2526 118.579 14.9473C118.863 14.8315 119.179 14.9684 119.305 15.2526C119.41 15.5368 119.284 15.8526 118.989 15.9684C113.632 18.1052 110.032 23.421 110.032 29.1789C110.042 29.4947 109.789 29.7473 109.484 29.7473Z" fill="white"/>
</svg>
