<svg width="60" height="25" viewBox="0 0 60 25" fill="none" xmlns="http://www.w3.org/2000/svg">
<path d="M12.9393 10.4755C13.3961 10.2067 13.7749 9.82347 14.0384 9.36356C14.3019 8.90366 14.4409 8.383 14.4417 7.85297C14.4425 7.32294 14.3052 6.80185 14.0431 6.34113C13.7811 5.88041 13.4034 5.49598 12.9474 5.22576L4.56097 0.402425C4.09757 0.137259 3.57263 -0.00151388 3.03873 1.24561e-05C2.50483 0.00153879 1.9807 0.143305 1.51882 0.411116C1.05694 0.678927 0.673531 1.06339 0.406976 1.52599C0.140421 1.98859 7.56883e-05 2.51311 0 3.04701V18.2144C0.0010793 19.0223 0.322509 19.7968 0.893794 20.368C1.46508 20.9392 2.23959 21.2605 3.04744 21.2614H6.09488V14.4293L12.9393 10.4755ZM1.2933 3.04701C1.29352 2.7401 1.37425 2.43861 1.52741 2.17265C1.68058 1.90669 1.90084 1.68556 2.16619 1.53133C2.43153 1.37711 2.73269 1.29517 3.0396 1.29372C3.34651 1.29227 3.64843 1.37135 3.91523 1.52306L12.2922 6.34142C12.5537 6.4961 12.7702 6.71651 12.9202 6.98074C13.0702 7.24498 13.1485 7.54385 13.1473 7.8477C13.1465 8.15239 13.0668 8.45169 12.9159 8.7164C12.765 8.9811 12.5481 9.20218 12.2863 9.35805L1.48997 15.5961C1.42471 15.6346 1.36218 15.6763 1.30055 15.7194L1.29284 15.7244L1.2933 3.04701ZM4.80069 15.1761V19.969H3.04654C2.5815 19.9684 2.1357 19.7833 1.80699 19.4544C1.47828 19.1254 1.29353 18.6795 1.2933 18.2144C1.29156 17.9112 1.36924 17.6128 1.51863 17.349C1.66801 17.0851 1.88388 16.865 2.14477 16.7104L4.80069 15.1761Z" fill="white"/>
<path d="M14.8827 19.5241V16.1028C14.8899 15.7602 14.8238 15.4199 14.6889 15.1049C14.5539 14.7899 14.3532 14.5073 14.1001 14.2762C13.5169 13.8081 12.7812 13.5722 12.0346 13.6141C11.512 13.6087 10.9942 13.7141 10.5152 13.9232C10.0821 14.1077 9.70279 14.3989 9.41268 14.7697C9.15418 15.0878 9.00937 15.4832 9.00123 15.893V15.9741H10.4404V15.893C10.443 15.74 10.4833 15.59 10.5579 15.4564C10.6324 15.3228 10.7389 15.2097 10.8677 15.1272C11.1859 14.9017 11.5692 14.7867 11.9589 14.8C12.1603 14.7852 12.3627 14.8103 12.5543 14.874C12.7459 14.9377 12.9231 15.0387 13.0755 15.1712C13.2028 15.3042 13.3016 15.4618 13.3659 15.6343C13.4303 15.8068 13.4588 15.9906 13.4498 16.1744V16.677H12.2952C11.4038 16.6252 10.5187 16.8553 9.76524 17.3345C9.46943 17.5453 9.23078 17.8264 9.07088 18.1525C8.91099 18.4786 8.83487 18.8395 8.84941 19.2024C8.84277 19.5123 8.90493 19.8199 9.0314 20.1029C9.15787 20.3859 9.3455 20.6374 9.5808 20.8392C10.0981 21.2779 10.761 21.5068 11.4387 21.4808C12.2054 21.4869 12.9433 21.189 13.491 20.6525C13.514 20.8748 13.5696 21.0925 13.656 21.2987L13.6786 21.344H15.1419V21.1528L15.1351 21.1206C14.9464 20.6103 14.8606 20.0677 14.8827 19.5241ZM12.7148 19.9138C12.3836 20.1085 12.0065 20.2114 11.6223 20.212C11.271 20.2268 10.9263 20.1141 10.6516 19.8948C10.5272 19.7876 10.4292 19.6532 10.3652 19.502C10.3011 19.3508 10.2728 19.1869 10.2823 19.0229C10.2823 18.1583 11.0196 17.7378 12.5358 17.7378H13.4503V19.1616C13.2855 19.4804 13.0294 19.7428 12.7148 19.9152V19.9138Z" fill="white"/>
<path d="M20.2591 13.6147C19.8625 13.6052 19.4685 13.6807 19.1036 13.8361C18.7386 13.9916 18.4112 14.2234 18.1433 14.516V10.6348H16.7109V21.345H18.1433V15.9874C18.3027 15.6617 18.5412 15.3812 18.8371 15.1717C19.1413 14.9604 19.5045 14.8503 19.8748 14.8572C20.0673 14.8407 20.261 14.8641 20.444 14.9258C20.627 14.9876 20.7953 15.0864 20.9384 15.2161C21.1904 15.5377 21.3135 15.9416 21.2837 16.349V21.345H22.7161V16.3522C22.702 14.5359 21.875 13.6147 20.2591 13.6147Z" fill="white"/>
<path d="M30.2767 19.5241V16.1028C30.284 15.7602 30.2179 15.4199 30.083 15.1049C29.948 14.7899 29.7472 14.5073 29.4941 14.2762C28.911 13.8081 28.1753 13.5722 27.4287 13.6141C26.9061 13.6087 26.3882 13.7141 25.9093 13.9232C25.4763 14.1075 25.097 14.3984 24.8068 14.7688C24.5484 15.087 24.4038 15.4823 24.3957 15.8921V15.9732H25.835V15.8921C25.8375 15.7391 25.8778 15.5891 25.9524 15.4555C26.027 15.3219 26.1334 15.2088 26.2623 15.1263C26.5804 14.9008 26.9637 14.7858 27.3535 14.7991C27.5549 14.7843 27.7572 14.8094 27.9488 14.8731C28.1405 14.9368 28.3176 15.0378 28.47 15.1703C28.5973 15.3033 28.6961 15.4609 28.7605 15.6334C28.8248 15.8059 28.8534 15.9897 28.8443 16.1735V16.6761H27.6897C26.7983 16.6243 25.9132 16.8544 25.1598 17.3336C24.8639 17.5444 24.6253 17.8255 24.4654 18.1516C24.3055 18.4777 24.2294 18.8386 24.2439 19.2015C24.2373 19.5114 24.2995 19.8189 24.4259 20.102C24.5524 20.385 24.74 20.6365 24.9753 20.8383C25.4926 21.277 26.1555 21.5059 26.8332 21.4799C27.6012 21.4869 28.3406 21.189 28.8892 20.6516C28.9121 20.8739 28.9677 21.0916 29.0541 21.2978L29.0768 21.3431H30.5382V21.1519L30.5314 21.1197C30.342 20.6099 30.2555 20.0676 30.2767 19.5241ZM28.1089 19.9138C27.7776 20.1085 27.4005 20.2114 27.0163 20.212C26.6651 20.2268 26.3204 20.1141 26.0457 19.8948C25.9213 19.7876 25.8233 19.6532 25.7593 19.502C25.6952 19.3508 25.6669 19.1869 25.6764 19.0229C25.6764 18.1583 26.4136 17.7378 27.9299 17.7378H28.8443V19.1616C28.6795 19.4803 28.4235 19.7427 28.1089 19.9152V19.9138Z" fill="white"/>
<path d="M40.1106 13.6153C39.6569 13.6005 39.2062 13.6945 38.7963 13.8895C38.3863 14.0844 38.029 14.3747 37.7542 14.736C37.5439 14.3638 37.2308 14.0601 36.8523 13.8613C36.4738 13.6625 36.0461 13.5771 35.6203 13.6153C35.2264 13.601 34.8338 13.6685 34.4672 13.8134C34.1007 13.9583 33.7681 14.1775 33.4905 14.4573L33.461 13.7531H32.1016V21.3443H33.534V15.8539C33.6635 15.5366 33.8908 15.2689 34.1829 15.0896C34.4749 14.9104 34.8165 14.8289 35.1581 14.857C36.1709 14.857 36.663 15.3604 36.663 16.3977V21.347H38.1035V16.3415C38.1324 15.9277 38.3168 15.5401 38.6197 15.2567C38.9282 14.9851 39.3287 14.8415 39.7394 14.8552C39.948 14.834 40.1588 14.8558 40.3587 14.9191C40.5586 14.9825 40.7434 15.0861 40.9018 15.2236C41.154 15.5462 41.2763 15.9517 41.2444 16.3601V21.3447H42.6768V16.2835C42.6491 14.513 41.7854 13.6153 40.1106 13.6153Z" fill="white"/>
<path d="M45.2636 11.0466C45.149 11.0391 45.0341 11.0567 44.9269 11.0982C44.8198 11.1397 44.7229 11.204 44.6433 11.2868C44.5035 11.4454 44.4288 11.651 44.4339 11.8623C44.4281 12.0722 44.5034 12.2762 44.6442 12.4319C44.7249 12.5125 44.822 12.5749 44.9288 12.615C45.0356 12.6551 45.1498 12.6719 45.2636 12.6644C45.373 12.6744 45.4833 12.6608 45.587 12.6245C45.6907 12.5882 45.7854 12.53 45.8647 12.454C45.944 12.378 46.0061 12.2858 46.0467 12.1837C46.0873 12.0816 46.1055 11.972 46.1001 11.8623C46.1052 11.65 46.029 11.4439 45.8872 11.2859C45.8066 11.2035 45.7091 11.1394 45.6015 11.0981C45.4939 11.0569 45.3787 11.0393 45.2636 11.0466Z" fill="white"/>
<path d="M45.9715 13.752H44.5391V21.3431H45.9715V13.752Z" fill="white"/>
<path d="M50.9886 10.4908C50.6482 10.4705 50.3073 10.52 49.9867 10.6364C49.6662 10.7527 49.3729 10.9334 49.1248 11.1673C48.8943 11.4251 48.7171 11.7261 48.6035 12.0527C48.49 12.3794 48.4423 12.7253 48.4632 13.0705V13.7503H47.2891V14.8945H48.4632V21.3415H49.8956V14.8963H51.4816V13.7521H49.8956V13.0479C49.8715 12.6927 49.984 12.3418 50.2101 12.0668C50.3271 11.9509 50.4674 11.861 50.6216 11.8032C50.7759 11.7453 50.9406 11.7207 51.105 11.731C51.3303 11.73 51.5551 11.7502 51.7766 11.7913L51.8672 11.8085L51.9465 10.6267L51.8822 10.6095C51.5908 10.531 51.2904 10.4911 50.9886 10.4908Z" fill="white"/>
<path d="M57.4682 13.752L55.7952 19.1363L54.0025 13.752H52.4414L55.1209 21.1791L54.849 21.9091C54.757 22.2638 54.5602 22.5824 54.2844 22.8236C54.0004 23.0024 53.6678 23.0882 53.3328 23.0692L52.9018 23.0348V24.2197L53.4497 24.3226L53.6971 24.3435C54.7366 24.3435 55.5038 23.7023 55.9778 22.4352L58.9645 13.8598L59.0017 13.752H57.4682Z" fill="white"/>
</svg>
