<svg width="24" height="24" viewBox="0 0 24 24" fill="none" xmlns="http://www.w3.org/2000/svg">
<path d="M12 24C18.6274 24 24 18.6274 24 12C24 5.37258 18.6274 0 12 0C5.37258 0 0 5.37258 0 12C0 18.6274 5.37258 24 12 24Z" fill="#E54C6E"/>
<path d="M14.1213 12.0001L16.5613 9.56012C16.7046 9.42174 16.8188 9.25618 16.8974 9.07318C16.976 8.89017 17.0175 8.69337 17.0192 8.4942C17.021 8.29503 16.9829 8.09749 16.9075 7.91314C16.8321 7.7288 16.7207 7.56131 16.5799 7.42047C16.4391 7.27963 16.2716 7.16825 16.0872 7.09283C15.9029 7.01741 15.7053 6.9794 15.5062 6.98114C15.307 6.98287 15.1102 7.02435 14.9272 7.10296C14.7442 7.18158 14.5786 7.29576 14.4402 7.43902L12.0003 9.87811L9.56134 7.43902C9.27843 7.16578 8.89946 7.01458 8.50616 7.018C8.11287 7.02142 7.73667 7.17922 7.45855 7.45733C7.18044 7.73544 7.02276 8.11164 7.01934 8.50494C7.01593 8.89823 7.16701 9.27721 7.44024 9.56012L9.87933 12.0001L7.44024 14.439C7.29698 14.5774 7.1828 14.743 7.10418 14.926C7.02557 15.109 6.98421 15.3058 6.98248 15.5049C6.98075 15.7041 7.01863 15.9016 7.09405 16.086C7.16947 16.2703 7.28085 16.4378 7.42169 16.5787C7.56253 16.7195 7.73002 16.8309 7.91436 16.9063C8.09871 16.9817 8.29625 17.0196 8.49542 17.0179C8.69459 17.0161 8.89139 16.9748 9.0744 16.8962C9.2574 16.8176 9.42297 16.7034 9.56134 16.5601L12.0003 14.1201L14.4402 16.5601C14.5786 16.7034 14.7442 16.8176 14.9272 16.8962C15.1102 16.9748 15.307 17.0161 15.5062 17.0179C15.7053 17.0196 15.9029 16.9817 16.0872 16.9063C16.2716 16.8309 16.4391 16.7195 16.5799 16.5787C16.7207 16.4378 16.8321 16.2703 16.9075 16.086C16.9829 15.9016 17.021 15.7041 17.0192 15.5049C17.0175 15.3058 16.976 15.109 16.8974 14.926C16.8188 14.743 16.7046 14.5774 16.5613 14.439L14.1213 12.0001ZM10.1043 10.1C10.0105 10.1938 9.88337 10.2464 9.75079 10.2464C9.61821 10.2464 9.49104 10.1938 9.39727 10.1L8.14727 8.85003C8.05619 8.75573 8.00588 8.62945 8.00701 8.49835C8.00815 8.36725 8.06067 8.24181 8.15338 8.1491C8.24608 8.0564 8.37152 8.00388 8.50262 8.00274C8.63372 8.0016 8.76 8.05192 8.8543 8.143L10.1043 9.393C10.1975 9.48729 10.2495 9.61479 10.2487 9.74737C10.248 9.87995 10.1945 10.0068 10.1003 10.1H10.1043Z" fill="white"/>
</svg>
