<svg width="35" height="15" viewBox="0 0 35 15" fill="none" xmlns="http://www.w3.org/2000/svg">
<g clip-path="url(#clip0)">
<path d="M7.95666 6.52585C8.21982 6.37043 8.43799 6.14943 8.5898 5.88452C8.7416 5.61961 8.82184 5.31988 8.82262 5.01472C8.82134 4.71063 8.74137 4.41202 8.59047 4.14783C8.43958 3.88365 8.22286 3.66284 7.96133 3.5068L3.12828 0.733051C2.8628 0.581009 2.56199 0.501154 2.2559 0.501466C1.7904 0.502083 1.34414 0.686897 1.01498 1.01539C0.685824 1.34388 0.500619 1.78924 0.5 2.2538V10.9767C0.500619 11.4412 0.685824 11.8866 1.01498 12.2151C1.34414 12.5436 1.7904 12.7284 2.2559 12.729H4.01208V8.79939L7.95666 6.52585ZM1.24584 2.25351C1.246 1.98612 1.35248 1.7297 1.54191 1.5406C1.73135 1.3515 1.98825 1.24516 2.25618 1.24493C2.43184 1.2447 2.6045 1.29024 2.75711 1.37705L7.58431 4.14789C7.735 4.23686 7.85976 4.36361 7.9462 4.51557C8.03264 4.66753 8.07775 4.83939 8.07706 5.01413C8.07658 5.18942 8.03057 5.36161 7.94349 5.51385C7.85641 5.66608 7.73125 5.79318 7.58024 5.88272L1.35865 9.46876C1.32124 9.49121 1.28503 9.51483 1.24937 9.53963L1.24498 9.54255L1.24584 2.25351ZM3.26709 9.22902V11.9853H2.25618C1.98822 11.9849 1.73134 11.8785 1.54191 11.6894C1.35249 11.5002 1.24599 11.2438 1.24584 10.9764C1.24484 10.802 1.28961 10.6305 1.3757 10.4787C1.46179 10.327 1.58622 10.2004 1.73656 10.1116L3.26709 9.22902Z" fill="#3B73C5"/>
<path d="M9.07585 11.7293V9.76175C9.07994 9.56478 9.04182 9.3692 8.96404 9.18812C8.88627 9.00704 8.77066 8.84462 8.62491 8.71174C8.28882 8.44253 7.8648 8.30687 7.43451 8.33084C7.13296 8.32754 6.83413 8.38808 6.55774 8.50846C6.30825 8.61446 6.0897 8.78171 5.92239 8.99467C5.77342 9.17774 5.68999 9.40522 5.68536 9.641V9.68766H6.5145V9.64129C6.51595 9.55329 6.53923 9.46701 6.58222 9.39016C6.62521 9.31331 6.68658 9.24828 6.76088 9.20087C6.94422 9.07111 7.16518 9.00501 7.38981 9.01274C7.50579 9.00428 7.62231 9.0188 7.73266 9.05545C7.843 9.09209 7.94501 9.15014 8.0328 9.22625C8.10611 9.30276 8.16303 9.39337 8.20012 9.49255C8.2372 9.59174 8.25364 9.69742 8.24846 9.80316V10.0922H7.58328C7.06943 10.0628 6.55932 10.1954 6.12521 10.4714C5.95476 10.5926 5.81728 10.7543 5.72517 10.9418C5.63307 11.1294 5.58927 11.3369 5.5977 11.5456C5.59389 11.7238 5.62968 11.9006 5.70256 12.0634C5.77543 12.2261 5.88357 12.3707 6.01914 12.4868C6.31689 12.7388 6.69837 12.8704 7.08849 12.8557C7.53107 12.8597 7.95718 12.6883 8.27332 12.3792C8.28649 12.5071 8.31848 12.6324 8.36829 12.751L8.38114 12.7767H9.2243V12.6667L9.22052 12.6481C9.11201 12.3544 9.06284 12.0421 9.07585 11.7293ZM7.82645 11.9536C7.6356 12.0656 7.41829 12.1248 7.19691 12.1251C6.99453 12.1336 6.7959 12.0689 6.63755 11.9428C6.56589 11.8812 6.50938 11.8039 6.47244 11.7169C6.4355 11.63 6.4191 11.5357 6.42449 11.4415C6.42449 10.9456 6.84943 10.7024 7.72299 10.7024H8.24906V11.5214C8.15431 11.7041 8.00718 11.8546 7.82645 11.9536Z" fill="#3B73C5"/>
<path d="M12.1745 8.32975C11.946 8.3243 11.7189 8.36773 11.5086 8.45713C11.2983 8.54652 11.1096 8.67981 10.9552 8.84804V6.61621H10.1299V12.7745H10.9552V9.69416C11.047 9.50644 11.1844 9.34469 11.355 9.22371C11.5305 9.1022 11.7398 9.03893 11.9533 9.04288C12.0643 9.03323 12.1761 9.04656 12.2817 9.08204C12.3873 9.11753 12.4844 9.17439 12.567 9.24908C12.7122 9.43393 12.7832 9.66614 12.766 9.90038V12.7742H13.5917V9.90387C13.5823 8.8597 13.1059 8.32975 12.1745 8.32975Z" fill="#3B73C5"/>
<path d="M17.9465 11.7289V9.76128C17.9506 9.56428 17.9125 9.36868 17.8347 9.18759C17.7568 9.0065 17.6411 8.8441 17.4953 8.71127C17.1592 8.442 16.7352 8.30633 16.3049 8.33036C16.0034 8.32706 15.7046 8.3876 15.4282 8.50799C15.1787 8.61398 14.9601 8.78124 14.7928 8.99419C14.6438 9.17726 14.5604 9.40474 14.5558 9.64053V9.68719H15.3852V9.64081C15.3867 9.55282 15.4099 9.46656 15.4529 9.38972C15.4959 9.31287 15.5573 9.24782 15.6316 9.20039C15.8148 9.07071 16.0357 9.00462 16.2602 9.01226C16.3762 9.00385 16.4927 9.0184 16.603 9.05504C16.7134 9.09168 16.8154 9.1497 16.9032 9.22578C16.9765 9.30229 17.0334 9.39289 17.0705 9.49208C17.1076 9.59126 17.124 9.69695 17.1189 9.80269V10.0917H16.4534C15.9396 10.0623 15.4296 10.195 14.9956 10.4709C14.8251 10.5921 14.6876 10.7537 14.5954 10.9413C14.5033 11.1289 14.4594 11.3364 14.4678 11.5451C14.464 11.7233 14.4998 11.9002 14.5727 12.0629C14.6455 12.2257 14.7537 12.3703 14.8893 12.4863C15.1871 12.7384 15.5687 12.87 15.9589 12.8553C16.4015 12.8592 16.8276 12.6878 17.1437 12.3787C17.1568 12.5067 17.1888 12.632 17.2387 12.7506L17.2515 12.7762H18.0947V12.6663L18.0909 12.6476C17.9824 12.3539 17.9334 12.0416 17.9465 11.7289ZM16.6974 11.9531C16.5065 12.0651 16.2893 12.1243 16.0679 12.1246C15.8655 12.1332 15.6668 12.0684 15.5085 11.9424C15.4368 11.8807 15.3803 11.8034 15.3434 11.7165C15.3064 11.6295 15.29 11.5353 15.2955 11.441C15.2955 10.9451 15.7201 10.7019 16.594 10.7019H17.12V11.5209C17.0252 11.7037 16.878 11.8541 16.6971 11.9531H16.6974Z" fill="#3B73C5"/>
<path d="M23.6139 8.33031C23.3245 8.32349 23.0382 8.39078 22.7822 8.52574C22.5775 8.63746 22.3984 8.79041 22.2561 8.9749C22.1349 8.7608 21.9545 8.58613 21.7364 8.4718C21.5182 8.35747 21.2717 8.30834 21.0263 8.33031C20.7993 8.32194 20.573 8.36062 20.3618 8.4439C20.1505 8.52719 19.9588 8.65326 19.7988 8.81418L19.7818 8.40906H18.998V12.7747H19.8234V9.61831C19.8978 9.43503 20.029 9.28032 20.1979 9.17683C20.3667 9.07333 20.5643 9.0265 20.7618 9.04315C21.3463 9.04315 21.6292 9.33248 21.6292 9.92835V12.7744H22.4586V9.89773C22.4752 9.65971 22.5815 9.43678 22.7561 9.27386C22.9339 9.11769 23.1648 9.03516 23.4015 9.04315C23.5217 9.03097 23.6432 9.04346 23.7584 9.07988C23.8736 9.11629 23.98 9.17587 24.0713 9.2549C24.2167 9.4405 24.2871 9.67367 24.2689 9.90852V12.7744H25.0942V9.86419C25.0767 8.84657 24.579 8.33031 23.6139 8.33031Z" fill="#3B73C5"/>
<path d="M26.5855 6.85302C26.5194 6.84871 26.4532 6.85883 26.3914 6.88271C26.3297 6.90659 26.274 6.94365 26.2281 6.99127C26.1476 7.08256 26.1046 7.20078 26.1076 7.32231C26.1042 7.44297 26.1475 7.56029 26.2286 7.64985C26.2752 7.69616 26.3311 7.73204 26.3926 7.75508C26.4541 7.77811 26.5199 7.78778 26.5855 7.78344C26.6513 7.78771 26.7173 7.77805 26.7791 7.75508C26.8409 7.73211 26.8971 7.69633 26.9441 7.65014C27.0264 7.56108 27.0707 7.44346 27.0674 7.32231C27.0702 7.20026 27.0262 7.08172 26.9444 6.99097C26.898 6.94354 26.842 6.90667 26.78 6.88286C26.7181 6.85904 26.6517 6.84887 26.5855 6.85302Z" fill="#3B73C5"/>
<path d="M26.9914 8.40918H26.166V12.7748H26.9914V8.40918Z" fill="#3B73C5"/>
<path d="M29.8845 6.53332C29.6883 6.52162 29.4918 6.55011 29.3071 6.61703C29.1224 6.68394 28.9534 6.78785 28.8104 6.9224C28.6778 7.07078 28.5759 7.24391 28.5107 7.43178C28.4455 7.61966 28.4183 7.81857 28.4305 8.01702V8.40874H27.7539V9.06673H28.4305V12.7744H29.2558V9.06673H30.17V8.40874H29.2558V8.0039C29.242 7.7997 29.3068 7.59794 29.437 7.43981C29.5044 7.37304 29.5852 7.32129 29.6742 7.28796C29.7631 7.25463 29.8581 7.24048 29.9529 7.24645C30.0826 7.24585 30.212 7.25745 30.3395 7.28114L30.3915 7.29106L30.4371 6.61149L30.4 6.60157C30.2319 6.55644 30.0586 6.53349 29.8845 6.53332Z" fill="#3B73C5"/>
<path d="M33.6166 8.40877L32.6521 11.5054L31.619 8.40877H30.7197L32.2637 12.6802L32.1071 13.0999C32.0537 13.3036 31.9403 13.4865 31.7815 13.6249C31.6178 13.7276 31.4262 13.777 31.2332 13.7661L30.9848 13.7463V14.4279L31.3007 14.4862L31.4431 14.4982C32.0422 14.4982 32.4844 14.1292 32.7582 13.4007L34.4793 8.46887L34.5009 8.40674L33.6166 8.40877Z" fill="#3B73C5"/>
</g>
<defs>
<clipPath id="clip0">
<rect width="34" height="14" fill="white" transform="translate(0.5 0.5)"/>
</clipPath>
</defs>
</svg>
