<svg width="24" height="24" viewBox="0 0 24 24" fill="none" xmlns="http://www.w3.org/2000/svg">
<path d="M12 2C9.34784 2 6.80429 3.05356 4.92892 4.92892C3.05356 6.80429 2 9.34784 2 12C2 14.6522 3.05356 17.1957 4.92892 19.0711C6.80429 20.9464 9.34784 22 12 22C13.8054 21.9975 15.5762 21.5054 17.124 20.576C17.348 20.4381 17.5087 20.2175 17.5712 19.962C17.6337 19.7064 17.593 19.4366 17.4579 19.2108C17.3228 18.9851 17.1042 18.8217 16.8495 18.756C16.5947 18.6904 16.3244 18.7277 16.097 18.86C14.8596 19.6036 13.4437 19.9976 12 20C10.4177 20 8.87103 19.5308 7.55544 18.6518C6.23984 17.7727 5.21446 16.5233 4.60896 15.0615C4.00346 13.5997 3.84504 11.9911 4.15372 10.4393C4.4624 8.88742 5.22432 7.46196 6.34314 6.34314C7.46196 5.22432 8.88742 4.4624 10.4393 4.15372C11.9911 3.84504 13.5997 4.00346 15.0615 4.60896C16.5233 5.21446 17.7727 6.23984 18.6518 7.55544C19.5308 8.87103 20 10.4177 20 12V13.5C20 13.8978 19.842 14.2793 19.5607 14.5607C19.2793 14.842 18.8978 15 18.5 15C18.1022 15 17.7207 14.842 17.4393 14.5607C17.158 14.2793 17 13.8978 17 13.5V12C17.0056 10.832 16.6041 9.69859 15.8646 8.79451C15.1251 7.89043 14.0938 7.27219 12.9479 7.04607C11.802 6.81994 10.6131 7.00005 9.58565 7.55544C8.55815 8.11082 7.75622 9.00678 7.31769 10.0893C6.87916 11.1719 6.83143 12.3734 7.18271 13.4873C7.53398 14.6012 8.26232 15.5579 9.24252 16.1931C10.2227 16.8282 11.3936 17.1021 12.5538 16.9676C13.714 16.833 14.7911 16.2986 15.6 15.456C16.0194 16.0766 16.6267 16.5463 17.3329 16.7961C18.039 17.0458 18.8067 17.0625 19.523 16.8436C20.2393 16.6247 20.8665 16.1817 21.3123 15.5799C21.7582 14.978 21.9992 14.249 22 13.5V12C21.9971 9.34873 20.9426 6.80688 19.0679 4.93214C17.1931 3.05741 14.6513 2.00291 12 2ZM12 15C11.4067 15 10.8266 14.8241 10.3333 14.4944C9.83993 14.1648 9.45543 13.6962 9.22836 13.1481C9.0013 12.5999 8.94189 11.9967 9.05765 11.4147C9.1734 10.8328 9.45912 10.2982 9.87868 9.87868C10.2982 9.45912 10.8328 9.1734 11.4147 9.05765C11.9967 8.94189 12.5999 9.0013 13.1481 9.22836C13.6962 9.45543 14.1648 9.83993 14.4944 10.3333C14.8241 10.8266 15 11.4067 15 12C15 12.7956 14.6839 13.5587 14.1213 14.1213C13.5587 14.6839 12.7956 15 12 15Z" fill="#1D3962"/>
</svg>
