<svg width="22" height="20" viewBox="0 0 22 20" fill="none" xmlns="http://www.w3.org/2000/svg">
<path fill-rule="evenodd" clip-rule="evenodd" d="M13.8041 4.82001C13.8041 7.48203 11.6461 9.64 8.98407 9.64C6.32206 9.64 4.16406 7.48203 4.16406 4.82001C4.16406 2.15799 6.32206 0 8.98407 0C11.6461 0 13.8041 2.15799 13.8041 4.82001ZM12.8041 4.82001C12.8041 6.92974 11.0938 8.64 8.98407 8.64C6.87434 8.64 5.16406 6.92974 5.16406 4.82001C5.16406 2.71028 6.87434 1 8.98407 1C11.0938 1 12.8041 2.71028 12.8041 4.82001Z" fill="#3B73C5"/>
<path fill-rule="evenodd" clip-rule="evenodd" d="M0.603516 18.9991C0.603516 14.366 4.36212 10.6191 8.98352 10.6191C9.5358 10.6191 9.98352 11.0669 9.98352 11.6191C9.98352 12.1714 9.5358 12.6191 8.98352 12.6191C5.80438 12.6191 3.16175 14.9483 2.68144 17.9991H8.98352C9.5358 17.9991 9.98352 18.4469 9.98352 18.9991C9.98352 19.5514 9.5358 19.9991 8.98352 19.9991H1.60352C1.05123 19.9991 0.603516 19.5514 0.603516 18.9991Z" fill="#3B73C5"/>
<path fill-rule="evenodd" clip-rule="evenodd" d="M17.2753 10.2933C18.2159 9.35276 19.749 9.35276 20.6896 10.2933C20.7251 10.3288 20.7577 10.3667 20.7871 10.4067C21.6289 11.3523 21.5963 12.8007 20.6896 13.7075L15.6896 18.7075C15.5798 18.8173 15.446 18.9 15.2987 18.9491L12.2987 19.9491C11.9393 20.0689 11.5432 19.9753 11.2753 19.7075C11.0075 19.4397 10.914 19.0435 11.0338 18.6842L12.0338 15.6842C12.0829 15.5369 12.1656 15.4031 12.2753 15.2933L17.2753 10.2933ZM19.2285 11.6674C19.0675 11.5494 18.8343 11.5628 18.6896 11.7075L13.8565 16.5406L13.5636 17.4193L14.4423 17.1264L19.2753 12.2933C19.4348 12.1338 19.4348 11.877 19.2753 11.7175C19.2591 11.7013 19.2435 11.6845 19.2285 11.6674Z" fill="#3B73C5"/>
<path d="M8.98407 8.64C11.0938 8.64 12.8041 6.92974 12.8041 4.82001C12.8041 2.71028 11.0938 1 8.98407 1C6.87434 1 5.16406 2.71028 5.16406 4.82001C5.16406 6.92974 6.87434 8.64 8.98407 8.64Z" fill="#3B73C5"/>
<path fill-rule="evenodd" clip-rule="evenodd" d="M8.98407 4C8.53635 4 8.16406 4.37229 8.16406 4.82001C8.16406 5.37229 7.71635 5.82001 7.16406 5.82001C6.61178 5.82001 6.16406 5.37229 6.16406 4.82001C6.16406 3.26772 7.43179 2 8.98407 2C9.53635 2 9.98407 2.44772 9.98407 3C9.98407 3.55228 9.53635 4 8.98407 4Z" fill="white"/>
</svg>
