<svg width="16" height="16" viewBox="0 0 16 16" fill="none" xmlns="http://www.w3.org/2000/svg">
<path fill-rule="evenodd" clip-rule="evenodd" d="M7.99967 1.3335C4.31778 1.3335 1.33301 4.31826 1.33301 8.00016C1.33301 11.6821 4.31778 14.6668 7.99967 14.6668C11.6816 14.6668 14.6663 11.6821 14.6663 8.00016C14.6663 4.31826 11.6816 1.3335 7.99967 1.3335ZM7.99967 7.14014C8.73605 7.14014 9.33301 7.73709 9.33301 8.47347V11.7468C9.33301 12.4832 8.73605 13.0801 7.99967 13.0801C7.26329 13.0801 6.66634 12.4832 6.66634 11.7468V8.47347C6.66634 7.73709 7.26329 7.14014 7.99967 7.14014ZM9.33301 4.8335C9.33301 5.56988 8.73605 6.16683 7.99967 6.16683C7.26329 6.16683 6.66634 5.56988 6.66634 4.8335C6.66634 4.09712 7.26329 3.50016 7.99967 3.50016C8.73605 3.50016 9.33301 4.09712 9.33301 4.8335Z" fill="#3B73C5"/>
</svg>
