<svg width="34" height="34" viewBox="0 0 34 34" fill="none" xmlns="http://www.w3.org/2000/svg">
<path d="M16.998 0.332031C13.7018 0.332031 10.4797 1.30959 7.73898 3.14087C4.99827 4.97215 2.86196 7.5748 1.60055 10.6201C0.339142 13.6654 0.00924852 17.0166 0.65231 20.2495C1.29537 23.4824 2.88256 26.4519 5.21335 28.7827C7.54413 31.1135 10.5137 32.7007 13.7465 33.3438C16.9794 33.9868 20.3304 33.6569 23.3757 32.3955C26.421 31.1341 29.0239 28.9978 30.8552 26.2571C32.6865 23.5164 33.664 20.2943 33.664 16.998C33.6566 12.5802 31.8983 8.34556 28.7744 5.22168C25.6505 2.0978 21.4158 0.339435 16.998 0.332031ZM11.448 11.5659C11.6022 11.4114 11.7854 11.289 11.987 11.2053C12.1886 11.1217 12.4047 11.0786 12.623 11.0786C12.8413 11.0786 13.0574 11.1217 13.259 11.2053C13.4606 11.289 13.6439 11.4114 13.7981 11.5659C14.1101 11.8806 14.2851 12.3059 14.2851 12.749C14.2851 13.1922 14.1101 13.6175 13.7981 13.9321C12.807 14.9142 11.4682 15.4651 10.073 15.4651C8.67775 15.4651 7.33914 14.9142 6.34811 13.9321C6.03606 13.6175 5.86081 13.1922 5.86081 12.749C5.86081 12.3059 6.03606 11.8806 6.34811 11.5659C6.5023 11.4114 6.68531 11.289 6.88693 11.2053C7.08855 11.1217 7.30463 11.0786 7.52292 11.0786C7.7412 11.0786 7.95752 11.1217 8.15915 11.2053C8.36077 11.289 8.54377 11.4114 8.69796 11.5659C8.87768 11.748 9.09181 11.8928 9.32785 11.9915C9.56388 12.0901 9.81713 12.1409 10.073 12.1409C10.3288 12.1409 10.582 12.0901 10.8181 11.9915C11.0541 11.8928 11.2682 11.748 11.448 11.5659ZM11.448 23.116C12.9234 21.6506 14.9185 20.8284 16.998 20.8284C19.0775 20.8284 21.0726 21.6506 22.5481 23.116C22.8477 23.4305 23.0128 23.8495 23.0083 24.2839C23.0038 24.7183 22.83 25.1339 22.5239 25.4421C22.2177 25.7504 21.8035 25.9269 21.3691 25.9343C20.9347 25.9418 20.5145 25.7795 20.198 25.4819C19.3492 24.6334 18.1982 24.1567 16.998 24.1567C15.7978 24.1567 14.6468 24.6334 13.7981 25.4819C13.6439 25.6364 13.4606 25.7591 13.259 25.8428C13.0574 25.9264 12.8413 25.9695 12.623 25.9695C12.4047 25.9695 12.1886 25.9264 11.987 25.8428C11.7854 25.7591 11.6022 25.6364 11.448 25.4819C11.1359 25.1673 10.9609 24.7422 10.9609 24.2991C10.9609 23.8559 11.1359 23.4306 11.448 23.116ZM20.198 13.9321C19.8859 13.6175 19.7109 13.1922 19.7109 12.749C19.7109 12.3059 19.8859 11.8806 20.198 11.5659C20.3522 11.4114 20.5354 11.289 20.737 11.2053C20.9386 11.1217 21.1547 11.0786 21.373 11.0786C21.5913 11.0786 21.8074 11.1217 22.009 11.2053C22.2106 11.289 22.3939 11.4114 22.5481 11.5659C22.7278 11.748 22.9419 11.8928 23.1779 11.9915C23.414 12.0901 23.6672 12.1409 23.9231 12.1409C24.1789 12.1409 24.4321 12.0901 24.6682 11.9915C24.9042 11.8928 25.1183 11.748 25.2981 11.5659C25.6137 11.2613 26.0364 11.0929 26.4751 11.0967C26.9137 11.1005 27.3332 11.2764 27.6435 11.5864C27.9538 11.8965 28.1301 12.316 28.1342 12.7546C28.1384 13.1933 27.9703 13.6162 27.666 13.9321C26.6717 14.9142 25.3306 15.4648 23.9331 15.4648C22.5355 15.4648 21.1942 14.9142 20.1999 13.9321H20.198Z" fill="white"/>
</svg>
